<?xml version="1.0" standalone="no"?>
<!DOCTYPE svg PUBLIC "-//W3C//DTD SVG 1.1//EN" "http://www.w3.org/Graphics/SVG/1.1/DTD/svg11.dtd" >
<svg xmlns="http://www.w3.org/2000/svg">
<metadata></metadata>
<defs>
<font id="VAGRoundedRegular" horiz-adv-x="417" >
<font-face units-per-em="2048" ascent="1638" descent="-410" />
<missing-glyph horiz-adv-x="512" />
<glyph horiz-adv-x="0" />
<glyph horiz-adv-x="2048" />
<glyph horiz-adv-x="1290" d="M-37 735q0 -39 24.5 -58.5t63.5 -19.5h78v-559q0 -41 22.5 -69.5t73.5 -28.5h379q147 0 263 54.5t196 151.5t122 232t42 299q0 145 -40 275.5t-121 229.5t-202 157.5t-284 58.5h-355q-51 0 -73.5 -28.5t-22.5 -69.5v-547h-78q-39 0 -63.5 -19.5t-24.5 -58.5zM309 156v501 h246q39 0 63.5 19.5t24.5 58.5t-24.5 58.5t-63.5 19.5h-246v490h246q129 0 220 -46.5t148.5 -124t84 -180t26.5 -215.5q0 -111 -25.5 -216t-81 -186t-144.5 -130t-216 -49h-258z" />
<glyph horiz-adv-x="1101" d="M72 537q0 -102 30.5 -201.5t90 -176.5t146.5 -124t200 -47q127 0 219 47t152.5 130t90 197.5t29.5 249.5q0 111 -16.5 215.5t-53 200.5t-97 185.5t-150.5 168.5l159 78q23 10 33 22.5t10 37.5q0 29 -16 39t-33 10q-23 0 -59 -19l-189 -94q-33 25 -70.5 47.5t-75.5 40 t-71.5 27.5t-58.5 10q-35 0 -55.5 -17.5t-20.5 -45.5q0 -29 17.5 -45.5t45 -28.5t62.5 -27.5t68 -42.5l-158 -76q-20 -10 -27.5 -22t-7.5 -25q0 -25 15.5 -40t33.5 -15q10 0 23.5 4t36.5 14l178 86q72 -59 141.5 -144t106.5 -185l-4 -4q-43 57 -115 90t-143 33 q-113 0 -200 -47.5t-146.5 -125t-90 -177t-30.5 -203.5zM252 537q0 70 17.5 139t54 125.5t93 92.5t134.5 36t134 -36t93 -92.5t54.5 -126t17.5 -138.5q0 -70 -17.5 -139.5t-54.5 -126t-93 -92.5t-134 -36t-134.5 36t-93 92.5t-54 126t-17.5 139.5z" />
<glyph horiz-adv-x="796" d="M-55 629q0 -31 18.5 -56.5t52.5 -25.5q23 0 41.5 6t34.5 16l27 17v-488q0 -41 22.5 -69.5t73.5 -28.5h469q39 0 63.5 20.5t24.5 63.5t-24.5 63.5t-63.5 20.5h-385v522l240 137q23 14 36 30.5t13 45.5q0 35 -21.5 56.5t-54.5 21.5q-23 0 -39 -7t-37 -18l-137 -77v495 q0 45 -24.5 70.5t-65.5 25.5t-65.5 -25.5t-24.5 -70.5v-600l-125 -74q-49 -27 -49 -71z" />
<glyph d="M-72 584q0 -31 22.5 -54.5t57.5 -23.5q23 0 38 9t30 24l43 43v-498q0 -45 24.5 -70.5t65.5 -25.5t65.5 25.5t24.5 70.5v678l156 156q16 16 25 31.5t9 37.5q0 31 -22.5 54.5t-56.5 23.5q-20 0 -35 -7t-33 -26l-43 -43v496q0 45 -24.5 70.5t-65.5 25.5t-65.5 -25.5 t-24.5 -70.5v-676l-156 -156q-35 -35 -35 -69z" />
<glyph horiz-adv-x="985" d="M43 164q0 -39 36 -71t94 -55q58 -24 131 -37t145 -13q119 0 210 38q92 38 155 101q62 63 95 147t33 175q0 123 -51 197q-51 75 -128 121t-167 75t-167 61q-77 33 -128 79t-51 126q0 92 65 149q66 57 166 58q68 0 110 -15q42 -14 72 -32t52 -33q23 -14 53 -14q35 0 56 23 q22 24 22 56q0 35 -31 67t-81 54q-50 23 -114 36q-65 13 -133 13q-100 0 -180 -34q-80 -35 -135 -89t-85 -121t-30 -130q0 -119 52 -190q51 -71 128 -114q77 -44 166 -73q90 -29 167 -62t128 -82t52 -135q0 -61 -21 -114q-20 -53 -59 -95q-39 -41 -95 -64q-55 -24 -124 -24 q-70 0 -121 18q-51 17 -91 39t-69 39t-51 17q-39 0 -58 -28q-18 -28 -18 -64zM182 1755q0 -51 47 -72l265 -112l264 112q47 20 47 72q0 33 -20 55q-19 23 -54 23q-8 0 -19 -2t-26 -8l-192 -76l-193 76q-14 6 -26 8q-11 2 -19 2q-35 0 -54 -23t-20 -55z" />
<glyph horiz-adv-x="909" d="M49 195q0 -35 32 -72t87 -67t130 -49t161 -19q76 0 147 20q72 20 127 63q55 42 89 104t34 149q0 80 -43 133t-107 91q-65 38 -141 65q-76 28 -140 56q-65 28 -108 60q-43 33 -43 80q0 70 57 103q56 34 134 34q66 0 106 -17q41 -17 70 -38q29 -20 52 -38q24 -17 52 -17 q41 0 62 22q20 23 20 51q0 43 -35 78q-36 35 -90 61q-53 26 -117 39q-65 14 -120 15q-68 0 -134 -20q-67 -19 -119 -58t-85 -96t-33 -133t43 -128t108 -90t140 -68q76 -30 140 -60q65 -31 108 -68t43 -90q0 -55 -56 -102q-56 -46 -155 -46q-74 0 -125 21q-51 20 -90 46 t-68 46t-59 20q-29 0 -51 -22q-23 -23 -23 -59zM143 1427q0 -51 47 -71l265 -113l264 113q47 20 47 71q0 33 -20 56q-19 23 -54 22q-8 0 -19 -2t-26 -8l-192 -76l-193 76q-14 6 -25 8t-20 2q-35 0 -54 -22q-19 -23 -20 -56z" />
<glyph horiz-adv-x="1024" d="M2 1397q0 -31 29 -76l391 -637v-600q0 -45 24 -71q25 -26 66 -25q41 0 66 25q25 26 24 71v600l391 637q29 45 29 76q0 35 -24 54t-58 19q-25 0 -47 -11q-23 -11 -43 -46l-338 -551l-338 551q-20 35 -43 46t-47 11q-35 0 -58 -19q-24 -19 -24 -54zM285 1657q0 -23 18 -54 q18 -32 59 -32q14 0 29 4q14 4 41 14l236 97q43 16 57 36t14 39q0 23 -18 55t-59 31q-14 0 -29 -4q-14 -4 -41 -14l-236 -96q-43 -16 -57 -37q-14 -20 -14 -39z" />
<glyph horiz-adv-x="909" d="M35 1026q0 -16 4 -35q4 -18 20 -65l308 -887l-115 -305q-16 -47 -22 -66q-5 -18 -5 -35q0 -35 26 -55t56 -20q35 0 57 19t31 48l455 1301q16 47 20 65t4 35q0 35 -25 55q-26 20 -56 21q-35 0 -56 -20q-20 -19 -30 -48l-246 -747h-4l-250 747q-10 29 -33 48t-57 20 q-31 0 -57 -21q-26 -20 -25 -55zM227 1329q0 -23 19 -54q18 -32 59 -32q14 0 29 4q14 4 41 15l235 96q43 16 58 37q14 20 14 39q0 23 -18 54q-18 32 -60 32q-14 0 -29 -4q-14 -4 -40 -15l-236 -96q-43 -16 -57 -37q-14 -20 -15 -39z" />
<glyph horiz-adv-x="1062" d="M119 84q0 -45 24.5 -70.5t65.5 -25.5t65.5 25.5t24.5 70.5v235h279q100 0 185 35t147.5 96.5t98 144.5t35.5 177t-32.5 177t-94 145.5t-148.5 98.5t-198 36h-272v145q0 45 -24.5 70.5t-65.5 25.5t-65.5 -25.5t-24.5 -70.5v-1290zM299 475v598h258q84 0 142.5 -27.5 t95 -70.5t53 -96.5t16.5 -106.5q0 -61 -21.5 -115.5t-61.5 -94.5t-94 -63.5t-122 -23.5h-266z" />
<glyph horiz-adv-x="1138" d="M127 -346q0 -45 24.5 -70.5t65.5 -25.5t65.5 25.5t24.5 70.5v481h4q18 -25 45 -51.5t64 -48t83 -34.5t99 -13q111 0 197 46t146.5 124t91 178t30.5 209t-30.5 209t-91 178t-146.5 124t-197 46q-213 0 -291 -150h-4v533q0 45 -24.5 70.5t-65.5 25.5t-65.5 -25.5 t-24.5 -70.5v-1831zM289 545q0 70 15 140.5t51 128.5t93.5 95t139.5 37q84 0 140 -37t92 -95t51.5 -129t15.5 -140q0 -70 -15.5 -140.5t-51.5 -129t-92 -95.5t-140 -37q-82 0 -139.5 37t-93.5 95.5t-51 129t-15 140.5z" />
<glyph horiz-adv-x="1138" d="M49 82q0 -39 25 -60q25 -22 82 -22h845q39 0 64 19t25 59q0 39 -25 58t-64 20h-735l752 1124q29 41 37 63q8 23 8 52q0 25 -25 44t-69 19h-797q-39 0 -63 -19q-25 -19 -25 -59q0 -39 25 -58t63 -19h662l-750 -1125q-23 -33 -29 -53t-6 -43zM258 1755q0 -51 47 -72 l264 -112l265 112q47 20 47 72q0 33 -20 55q-19 23 -54 23q-8 0 -20 -2q-11 -2 -25 -8l-193 -76l-192 76q-14 6 -26 8q-11 2 -19 2q-35 0 -54 -23t-20 -55z" />
<glyph horiz-adv-x="909" d="M41 63q0 -23 17 -43t71 -20h649q90 0 90 78t-90 78h-489l-6 4l526 774q20 29 29 49q8 20 8 43t-18 43q-17 20 -70 21h-606q-90 0 -91 -78q0 -78 91 -78h446l-520 -778q-20 -29 -29 -50q-8 -20 -8 -43zM143 1427q0 -51 47 -71l265 -113l264 113q47 20 47 71q0 33 -20 56 q-19 23 -54 22q-8 0 -19 -2t-26 -8l-192 -76l-193 76q-14 6 -25 8t-20 2q-35 0 -54 -22q-19 -23 -20 -56z" />
<glyph horiz-adv-x="1648" d="M74 1397q0 -61 57 -62h105v-678q0 -39 22.5 -56t50.5 -17q31 0 52.5 17t21.5 56v773q0 18 -12.5 23t-26.5 5h-213q-57 0 -57 -61zM324 27q0 -20 16 -38t51 -18q29 0 45.5 14.5t30.5 47.5l545 1306q18 43 23 61.5t5 31.5q0 18 -17 36.5t-54 18.5q-45 0 -72 -62l-545 -1306 q-16 -41 -22 -60.5t-6 -31.5zM928 43q0 -12 13 -27.5t48 -15.5h447q35 0 56 14.5t21 46.5q0 31 -21.5 46.5t-55.5 15.5h-303l297 358q37 45 55 83t18 89q0 43 -16.5 83t-50 71t-85 49t-118.5 18q-74 0 -130 -22.5t-95 -60t-58.5 -87t-19.5 -102.5q0 -68 63 -67q20 0 40 10 t20 39t12 58.5t34.5 54t54.5 40t71 15.5q59 0 95 -28t36 -75q0 -27 -15.5 -56.5t-37.5 -57.5l-351 -445q-25 -31 -24 -47z" />
<glyph horiz-adv-x="1648" d="M74 1397q0 -61 57 -62h105v-678q0 -39 22.5 -56t50.5 -17q31 0 52.5 17t21.5 56v773q0 18 -12.5 23t-26.5 5h-213q-57 0 -57 -61zM385 27q0 -20 16.5 -38t51.5 -18q29 0 45 14.5t30 47.5l545 1306q18 43 23.5 61.5t5.5 31.5q0 18 -17.5 36.5t-54.5 18.5q-45 0 -72 -62 l-544 -1306q-16 -41 -22.5 -60.5t-6.5 -31.5zM911 248q0 -18 11.5 -33.5t35.5 -15.5h365v-148q0 -31 19.5 -47t54.5 -16t54 16t19 47v148h50q25 0 40 17t15 44t-15.5 44.5t-39.5 17.5h-50v462q0 47 -28.5 68.5t-73.5 21.5q-31 0 -57.5 -18t-44.5 -47l-326 -490 q-10 -16 -19.5 -35.5t-9.5 -35.5zM1081 322l238 405h4v-405h-242z" />
<glyph horiz-adv-x="468" d="M16 1397q0 -61 58 -62h104v-678q0 -39 22.5 -56t51.5 -17q31 0 52.5 17t21.5 56v773q0 18 -12.5 23t-26.5 5h-213q-57 0 -58 -61z" />
<glyph horiz-adv-x="1648" d="M86 799q0 -35 17.5 -73t51 -69.5t85 -52t118.5 -20.5q66 0 124.5 18.5t101.5 52t67.5 82.5t24.5 111q0 74 -42 131t-120 80q57 31 85 82t28 104q0 92 -69 158.5t-198 66.5q-123 0 -186 -62t-63 -151q0 -57 51 -57q23 0 39 8.5t20 38.5q6 35 37 68t96 33q59 0 92 -34 t33 -75q0 -57 -27.5 -89t-93.5 -48q-35 -8 -48 -20.5t-13 -39.5q0 -20 15.5 -35.5t78.5 -15.5t100 -29.5t37 -99.5q0 -66 -47 -110.5t-112 -44.5q-63 0 -101.5 24.5t-64.5 81.5q-16 35 -29.5 43t-30.5 8q-33 0 -45 -21.5t-12 -43.5zM508 27q0 -20 16.5 -38t50.5 -18 q29 0 45.5 14.5t30.5 47.5l545 1306q18 43 23.5 61.5t5.5 31.5q0 18 -17.5 36.5t-54.5 18.5q-45 0 -72 -62l-544 -1306q-16 -41 -22.5 -60.5t-6.5 -31.5zM911 248q0 -18 11.5 -33.5t35.5 -15.5h365v-148q0 -31 19.5 -47t54.5 -16t54 16t19 47v148h50q25 0 40 17t15 44 t-15.5 44.5t-39.5 17.5h-50v462q0 47 -28.5 68.5t-73.5 21.5q-31 0 -57.5 -18t-44.5 -47l-326 -490q-10 -16 -19.5 -35.5t-9.5 -35.5zM1081 322l238 405h4v-405h-242z" />
<glyph horiz-adv-x="712" d="M61 799q0 -35 17.5 -73t51.5 -69.5t85 -52t119 -20.5q66 0 124 18.5t101 52t67.5 82.5t24.5 111q0 74 -42 131t-120 80q57 31 85 82t28 104q0 92 -68.5 158.5t-197.5 66.5q-123 0 -186.5 -62t-63.5 -151q0 -57 51 -57q23 0 39.5 8.5t20.5 38.5q6 35 36.5 68t96.5 33 q59 0 92 -34t33 -75q0 -57 -28 -89t-93 -48q-35 -8 -48.5 -20.5t-13.5 -39.5q0 -20 15.5 -35.5t79.5 -15.5q63 0 100 -29.5t37 -99.5q0 -66 -47 -110.5t-113 -44.5q-63 0 -101 24.5t-65 81.5q-16 35 -29.5 43t-29.5 8q-33 0 -45.5 -21.5t-12.5 -43.5z" />
<glyph horiz-adv-x="712" d="M63 639q0 -12 13.5 -27.5t48.5 -15.5h446q35 0 56.5 14.5t21.5 46.5q0 31 -21.5 46.5t-56.5 15.5h-303l297 358q37 45 55.5 83t18.5 89q0 43 -16.5 83t-50 71t-85 49t-118.5 18q-74 0 -130.5 -22.5t-95.5 -60t-58 -87t-19 -102.5q0 -68 63 -68q20 0 39.5 10.5t19.5 39.5 t12.5 58.5t35 54t54.5 40t70 15.5q59 0 95.5 -28t36.5 -75q0 -27 -15.5 -56.5t-38.5 -58.5l-350 -444q-25 -31 -25 -47z" />
<glyph horiz-adv-x="454" d="M143 -270q0 -39 20.5 -63.5t63.5 -24.5t63.5 24.5t20.5 63.5v540q0 39 -20.5 63.5t-63.5 24.5t-63.5 -24.5t-20.5 -63.5v-540zM143 754q0 -39 20.5 -63.5t63.5 -24.5t63.5 24.5t20.5 63.5v540q0 39 -20.5 63.5t-63.5 24.5t-63.5 -24.5t-20.5 -63.5v-540z" />
<glyph horiz-adv-x="1228" d="M96 518q0 -43 24.5 -63.5t63.5 -20.5h860q39 0 64 20.5t25 63.5t-25 63.5t-64 20.5h-860q-39 0 -63.5 -20.5t-24.5 -63.5z" />
<glyph horiz-adv-x="1228" d="M143 123q0 -29 20.5 -52.5t53.5 -23.5q23 0 41 10.5t45 36.5l311 312l312 -312q27 -27 45 -37t41 -10q33 0 53 23.5t20 52.5q0 20 -7 36.5t-36 45.5l-313 313l313 313q29 29 36 45.5t7 36.5q0 29 -20.5 52.5t-52.5 23.5q-23 0 -41.5 -10t-44.5 -37l-312 -309l-311 309 q-27 27 -45 37t-41 10q-33 0 -53.5 -23.5t-20.5 -52.5q0 -20 7.5 -36.5t35.5 -45.5l314 -313l-314 -313q-29 -29 -36 -45.5t-7 -36.5z" />
<glyph unicode=" "  horiz-adv-x="512" />
<glyph unicode="&#x09;" horiz-adv-x="512" />
<glyph unicode="&#xa0;" horiz-adv-x="512" />
<glyph unicode="!" horiz-adv-x="606" d="M199 92q0 -43 30.5 -73.5t73.5 -30.5t74 30.5t31 73.5t-31 74t-74 31t-73.5 -31t-30.5 -74zM213 487q0 -45 24.5 -70.5t65.5 -25.5t65.5 25.5t24.5 70.5v887q0 45 -24.5 70.5t-65.5 25.5t-65.5 -25.5t-24.5 -70.5v-887z" />
<glyph unicode="&#x22;" horiz-adv-x="684" d="M113 1104q0 -39 20.5 -63.5t63.5 -24.5t63.5 24.5t20.5 63.5v278q0 39 -20.5 63.5t-63.5 24.5t-63.5 -24.5t-20.5 -63.5v-278zM403 1104q0 -39 20.5 -63.5t63.5 -24.5t63.5 24.5t20.5 63.5v278q0 39 -20.5 63.5t-63.5 24.5t-63.5 -24.5t-20.5 -63.5v-278z" />
<glyph unicode="#" horiz-adv-x="1097" d="M29 510q0 -35 24.5 -51.5t59.5 -16.5h125l-41 -299q-4 -29 -7.5 -49t-3.5 -37q0 -29 16.5 -49t53.5 -20q41 0 57.5 19.5t20.5 53.5l53 381h244l-41 -299q-4 -29 -7 -49t-3 -37q0 -29 16 -49t53 -20q41 0 57.5 19.5t20.5 53.5l53 381h144q35 0 59.5 16.5t24.5 51.5 t-25 51.5t-59 16.5h-125l43 303h143q35 0 59.5 16t24.5 51t-24.5 51.5t-59.5 16.5h-125l41 299q4 29 7 49t3 37q0 29 -16 49t-53 20q-41 0 -57.5 -19t-20.5 -54l-53 -381h-244l41 299q4 29 7 49t3 37q0 29 -16.5 49t-52.5 20q-41 0 -57.5 -19t-20.5 -54l-54 -381h-143 q-35 0 -59.5 -16.5t-24.5 -51.5t24.5 -51t59.5 -16h125l-43 -303h-143q-35 0 -59.5 -16.5t-24.5 -51.5zM406 578l43 303h243l-43 -303h-243z" />
<glyph unicode="$" horiz-adv-x="985" d="M43 170q0 -33 34 -65.5t90 -58.5t129 -42t150 -16v-97q0 -18 11.5 -30.5t31.5 -12.5t31.5 12.5t11.5 30.5v105q98 12 175 53t129.5 102.5t79 138.5t26.5 159q0 104 -37 172.5t-96 114.5t-132 76t-145 54v449q51 -8 84 -23.5t57.5 -31t46 -27.5t48.5 -12q35 0 56.5 23.5 t21.5 55.5q0 33 -25.5 62t-69.5 51.5t-100.5 37.5t-118.5 19v97q0 18 -11 30.5t-32 12.5q-20 0 -31.5 -12.5t-11.5 -30.5v-97q-92 -8 -164.5 -44.5t-121.5 -90t-76 -116t-27 -123.5q0 -96 35 -160t90.5 -106t125 -68.5t138.5 -50.5v-568q-68 0 -117.5 17.5t-87.5 39t-68 39 t-58 17.5q-35 0 -53.5 -26.5t-18.5 -59.5zM250 1108q0 86 55 141.5t141 65.5v-416q-43 16 -78.5 34.5t-61 43t-41 56.5t-15.5 75zM532 154v526q45 -16 84 -36.5t69 -49.5t47.5 -65.5t17.5 -88.5q0 -111 -56.5 -187.5t-161.5 -98.5z" />
<glyph unicode="%" horiz-adv-x="1517" d="M86 1124q0 -68 19.5 -131t59.5 -110t98 -76t134 -29q78 0 135.5 29t97.5 76t59.5 110.5t19.5 130.5q0 68 -19.5 131.5t-59.5 110.5t-97.5 75.5t-135.5 28.5q-76 0 -134 -28.5t-98 -75.5t-59.5 -110.5t-19.5 -131.5zM221 1124q0 41 9.5 83t30 76t54 55.5t82.5 21.5 t83 -21.5t54.5 -55.5t29.5 -76t9 -83t-9 -83t-29.5 -75.5t-54.5 -55t-83 -21.5t-82.5 21.5t-54 55t-30 75.5t-9.5 83zM399 27q0 -20 16.5 -38t51.5 -18q29 0 45 14.5t31 47.5l544 1306q16 43 22.5 61.5t6.5 31.5q0 18 -17.5 36.5t-54.5 18.5q-45 0 -71 -62l-545 -1306 q-16 -41 -22.5 -60.5t-6.5 -31.5zM809 334q0 -68 19.5 -131.5t59.5 -110.5t98 -75.5t134 -28.5q78 0 135.5 28.5t97.5 75.5t59.5 110.5t19.5 131.5t-19.5 131t-59.5 110.5t-97.5 76t-135.5 28.5q-76 0 -134 -28.5t-98 -76t-59.5 -111t-19.5 -130.5zM944 334q0 41 9.5 83 t30 75.5t54 55t82.5 21.5t83 -21.5t54.5 -55t29.5 -75.5t9 -83t-9 -83t-29.5 -76t-54.5 -55.5t-83 -21.5t-82.5 21.5t-54 55.5t-30 76t-9.5 83z" />
<glyph unicode="&#x26;" horiz-adv-x="1366" d="M74 412q0 -100 36.5 -179t98 -133.5t143.5 -83t170 -28.5q117 0 232.5 53t218.5 182l176 -203q27 -33 70 -32q31 0 52 20.5t21 52.5q0 23 -9 39.5t-28 38.5l-178 211q111 133 151 210t40 118q0 31 -22.5 46t-53.5 15q-23 0 -44.5 -21.5t-45 -57t-51 -82t-62.5 -93.5 l-12 -16l-326 385q49 29 96.5 61.5t84 75.5t59 97.5t22.5 123.5q0 55 -25.5 103.5t-69.5 82.5t-101.5 53t-122.5 19q-74 0 -138.5 -16t-113.5 -51t-76.5 -92.5t-27.5 -136.5q0 -74 50 -148t111 -137q-76 -45 -136 -91t-102 -100.5t-64.5 -124t-22.5 -161.5zM254 432 q0 49 11 93t40 86t76 81t119 80l372 -430q-86 -104 -162.5 -145t-170.5 -41q-72 0 -125.5 21.5t-89 59t-53 88t-17.5 107.5zM418 1178q0 76 48 112.5t114 36.5q61 0 113 -36t52 -109q0 -35 -18 -66t-47 -58.5t-62.5 -50t-64.5 -40.5q-53 59 -94 111.5t-41 99.5z" />
<glyph unicode="'" d="M125 1104q0 -39 20.5 -63.5t63.5 -24.5t63.5 24.5t20.5 63.5v278q0 39 -20.5 63.5t-63.5 24.5t-63.5 -24.5t-20.5 -63.5v-278z" />
<glyph unicode="(" horiz-adv-x="493" d="M133 651q0 -211 31 -411.5t88 -352.5q14 -37 34.5 -64.5t55.5 -27.5q37 0 54.5 18.5t17.5 41.5t-9.5 48t-19.5 60q-41 127 -62.5 293t-21.5 395t21.5 395t62.5 293q10 35 19.5 60.5t9.5 48.5t-17.5 41t-54.5 18q-35 0 -55.5 -27.5t-34.5 -64.5q-57 -152 -88 -352.5 t-31 -411.5z" />
<glyph unicode=")" horiz-adv-x="493" d="M80 -145q0 -23 17.5 -41.5t54.5 -18.5q35 0 55 27.5t35 64.5q57 152 87.5 352.5t30.5 411.5t-30.5 412t-87.5 352q-14 37 -35 64.5t-55 27.5q-37 0 -54.5 -18.5t-17.5 -40.5q0 -23 9 -48.5t20 -60.5q41 -127 62.5 -292.5t21.5 -395.5q0 -229 -21.5 -395t-62.5 -293 q-10 -35 -19.5 -60.5t-9.5 -47.5z" />
<glyph unicode="*" horiz-adv-x="798" d="M78 967q0 -29 20.5 -49.5t51.5 -20.5q18 0 40.5 12.5t47 33t52 44t58.5 43.5q0 -55 -11 -113.5t-11 -99.5q0 -29 19.5 -50.5t53.5 -21.5q35 0 54.5 21.5t19.5 50.5q0 41 -11 99.5t-11 113.5q31 -20 58.5 -43.5t52 -44t47 -33t40.5 -12.5q31 0 51.5 20.5t20.5 49.5 q0 20 -7 35.5t-40 29.5l-182 76l182 76q33 14 40 29.5t7 35.5q0 29 -20.5 49.5t-51.5 20.5q-18 0 -40.5 -12.5t-47 -33t-52.5 -43t-58 -44.5q0 55 11 113.5t11 99.5q0 29 -19.5 50t-54.5 21t-54 -21.5t-19 -49.5q0 -41 11 -99.5t11 -113.5q-31 23 -58.5 45t-52 42.5t-47 33 t-40.5 12.5q-31 0 -51.5 -20.5t-20.5 -49.5q0 -20 7 -35.5t40 -29.5l182 -76l-182 -76q-33 -14 -40 -29.5t-7 -35.5z" />
<glyph unicode="+" horiz-adv-x="1228" d="M96 518q0 -43 24.5 -63.5t63.5 -20.5h346v-346q0 -39 20.5 -63.5t63.5 -24.5t63.5 24.5t20.5 63.5v346h346q39 0 64 20.5t25 63.5t-25 63.5t-64 20.5h-346v346q0 39 -20.5 63.5t-63.5 24.5t-63.5 -24.5t-20.5 -63.5v-346h-346q-39 0 -63.5 -20.5t-24.5 -63.5z" />
<glyph unicode="," horiz-adv-x="512" d="M45 -180q0 -35 24.5 -56.5t57.5 -21.5q41 0 60.5 23.5t35.5 52.5l115 225q23 45 22 76q0 35 -24.5 56.5t-56.5 21.5q-41 0 -60.5 -23.5t-36.5 -52.5l-114 -225q-23 -45 -23 -76z" />
<glyph unicode="-" horiz-adv-x="720" d="M72 549q0 -33 22.5 -55.5t55.5 -22.5h421q33 0 55.5 22.5t22.5 55.5t-22.5 55.5t-55.5 22.5h-421q-33 0 -55.5 -22.5t-22.5 -55.5z" />
<glyph unicode="." horiz-adv-x="512" d="M152 92q0 -43 30.5 -73.5t73.5 -30.5t73.5 30.5t30.5 73.5t-30.5 74t-73.5 31t-73.5 -31t-30.5 -74z" />
<glyph unicode="/" horiz-adv-x="833" d="M41 63q0 -35 22.5 -55t57.5 -20t54.5 18.5t29.5 42.5l559 1256q29 63 29 90q0 35 -22.5 55t-57.5 20t-54.5 -18t-29.5 -43l-559 -1255q-29 -63 -29 -91z" />
<glyph unicode="0" horiz-adv-x="1097" d="M68 729q0 -176 37.5 -313t103 -232.5t153 -145.5t187.5 -50t187 50t152.5 145.5t103.5 232.5t38 313t-38 313.5t-103.5 232.5t-152.5 145t-187 50t-187.5 -50t-153 -145t-103 -232.5t-37.5 -313.5zM260 729q0 154 22.5 264.5t61.5 182t92 105.5t113 34q59 0 112.5 -34 t92.5 -105.5t61.5 -182t22.5 -264.5t-22.5 -264.5t-61.5 -182t-92.5 -105.5t-112.5 -34t-112.5 34t-92.5 105.5t-61.5 182t-22.5 264.5z" />
<glyph unicode="1" horiz-adv-x="720" d="M70 1380q0 -33 22.5 -55t54.5 -22h189v-1219q0 -45 24.5 -70.5t65.5 -25.5t65.5 25.5t24.5 70.5v1325q0 35 -14.5 42t-40.5 7h-314q-33 0 -55 -22.5t-22 -55.5z" />
<glyph unicode="2" horiz-adv-x="1097" d="M104 1014q0 -111 89 -111q29 0 54 17.5t25 64.5q0 68 17.5 128.5t51.5 105.5t83 70.5t115 25.5q98 0 164.5 -63.5t66.5 -164.5q0 -66 -29.5 -132t-76.5 -126l-504 -673q-23 -33 -31 -49.5t-8 -32.5q0 -23 20.5 -48.5t77.5 -25.5h707q33 0 55.5 22.5t22.5 55.5t-23 55.5 t-55 22.5h-553l489 651q35 47 55.5 88t30.5 78t12.5 70.5t2.5 64.5q0 72 -28 136.5t-79 115.5t-124 80.5t-163 29.5q-113 0 -199.5 -36.5t-145 -100t-89.5 -146.5t-31 -173z" />
<glyph unicode="3" horiz-adv-x="1097" d="M84 324q0 -41 23.5 -98.5t76 -111t133 -90t193.5 -36.5q98 0 182 30.5t147.5 87t99.5 138.5t36 186q0 125 -63.5 221.5t-186.5 132.5q86 53 129 135t43 175q0 78 -26.5 145.5t-76 119.5t-119 81.5t-157.5 29.5q-90 0 -161.5 -30.5t-121 -80.5t-75 -116.5t-25.5 -140.5 q0 -35 21.5 -59.5t60.5 -24.5q12 0 25.5 2t27 9t22.5 24.5t11 48.5q4 41 16.5 80t37 68.5t62.5 47t91 17.5q94 0 150.5 -66.5t56.5 -171.5q0 -100 -47 -155.5t-158 -79.5q-51 -10 -72.5 -28.5t-21.5 -49.5q0 -35 28.5 -56.5t81.5 -21.5q51 0 97.5 -12t81 -43t55 -83 t20.5 -134q0 -55 -20.5 -104.5t-57 -86.5t-87 -58.5t-111.5 -21.5q-104 0 -161.5 54.5t-84.5 132.5q-16 47 -37.5 70.5t-62.5 23.5q-33 0 -54.5 -26.5t-21.5 -73.5z" />
<glyph unicode="4" horiz-adv-x="1097" d="M25 438q0 -29 15 -46t62 -17h582v-291q0 -45 24.5 -70.5t65.5 -25.5t65.5 25.5t24.5 70.5v291h92q33 0 55.5 22.5t22.5 55.5t-22.5 55t-55.5 22h-92v791q0 80 -39 114.5t-98 34.5q-47 0 -80 -17t-61 -64l-516 -846q-20 -33 -32.5 -58.5t-12.5 -46.5zM250 530l430 748h4 v-748h-434z" />
<glyph unicode="5" horiz-adv-x="1097" d="M90 229q0 -33 30 -74.5t84 -78.5t130 -62.5t166 -25.5q111 0 198.5 36.5t148 104.5t93.5 164t33 213q0 86 -26.5 166t-75 141t-117 98t-154.5 37q-51 0 -99 -9t-93 -32l59 396h416q33 0 55.5 22.5t22.5 54.5q0 33 -23 55.5t-55 22.5h-506q-33 0 -48.5 -9t-19.5 -38 l-76 -510q-4 -35 -9 -69.5t-5 -51.5q0 -23 14.5 -39t47.5 -16q18 0 40.5 8t52 19.5t67.5 19.5t87 8q66 0 114 -24.5t79 -65.5t45 -97t14 -122q0 -63 -19.5 -120.5t-55 -100.5t-87 -68.5t-116.5 -25.5q-78 0 -131.5 23.5t-92 52t-66.5 52t-56 23.5q-35 0 -50.5 -24.5 t-15.5 -53.5z" />
<glyph unicode="6" horiz-adv-x="1097" d="M106 489q0 -109 33 -200.5t91.5 -158.5t139.5 -104.5t175 -37.5q96 0 178 36.5t141.5 101t93 152t33.5 185.5q0 96 -24.5 182t-70.5 152.5t-114.5 105.5t-158.5 39q-74 0 -127.5 -15.5t-104.5 -41.5h-4q41 76 79 134t76 105t76.5 87t81.5 79q39 35 55.5 54.5t16.5 41.5 q0 41 -25.5 62.5t-48.5 21.5q-18 0 -36.5 -9t-47.5 -31q-82 -70 -172 -166.5t-164.5 -215t-123 -259t-48.5 -300.5zM287 471q0 63 15 120.5t46 100.5t79 68.5t116 25.5q135 0 195.5 -85t60.5 -230q0 -63 -15.5 -120.5t-46 -100.5t-79 -68.5t-115.5 -25.5q-68 0 -116 25.5 t-79 68.5t-46 100.5t-15 120.5z" />
<glyph unicode="7" horiz-adv-x="1024" d="M57 1380q0 -33 22.5 -55t55.5 -22h615v-5l-510 -1144q-16 -41 -22.5 -63.5t-6.5 -33.5q0 -35 24.5 -52t43.5 -17q29 0 59.5 11t48.5 54l545 1239q16 39 25.5 62.5t9.5 46.5q0 33 -26 45t-67 12h-739q-33 0 -55.5 -22.5t-22.5 -55.5z" />
<glyph unicode="8" horiz-adv-x="1097" d="M102 449q0 -88 30 -172t87 -147.5t140 -102.5t190 -39q106 0 189 39t140.5 102.5t87 147t29.5 172.5q0 63 -17 122.5t-51 108.5t-83 84t-113 49q98 61 144.5 134t46.5 190q0 84 -33 146.5t-85 104.5t-119 62t-136 20q-70 0 -136.5 -20t-118.5 -62t-85 -104.5t-33 -146.5 q0 -117 46 -190t145 -134q-63 -14 -112.5 -49t-83.5 -84t-51.5 -108.5t-17.5 -122.5zM295 440q0 55 16.5 108.5t48 93.5t78.5 64.5t111 24.5q63 0 110.5 -24.5t79 -64.5t48 -93t16.5 -109q0 -70 -20.5 -125t-55.5 -94t-81 -58.5t-97 -19.5t-97 19.5t-81 58.5t-55.5 94 t-20.5 125zM344 1102q0 92 53.5 152.5t151.5 60.5t151.5 -60.5t53.5 -152.5q0 -94 -53.5 -154.5t-151.5 -60.5t-151.5 60.5t-53.5 154.5z" />
<glyph unicode="9" horiz-adv-x="1097" d="M106 995q0 -94 25 -181t71 -153.5t115.5 -105.5t157.5 -39q74 0 127 15.5t105 41.5h4q-41 -76 -79 -134t-76 -105t-77 -87t-82 -79q-39 -35 -55 -54.5t-16 -41.5q0 -41 25.5 -62.5t47.5 -21.5q18 0 37 9t47 32q84 70 173 166t164 214.5t123 259t48 300.5q0 109 -32.5 201 t-91 158.5t-138.5 104t-176 37.5t-178 -36.5t-141.5 -101t-93.5 -151.5t-34 -186zM299 987q0 63 15.5 120.5t46 100.5t78.5 69t116 26t116 -26t78.5 -69t46 -100.5t15.5 -120.5t-15.5 -120.5t-46 -100.5t-78.5 -68.5t-116 -25.5q-135 0 -195.5 85t-60.5 230z" />
<glyph unicode=":" horiz-adv-x="512" d="M152 92q0 -43 30.5 -73.5t73.5 -30.5t73.5 30.5t30.5 73.5t-30.5 74t-73.5 31t-73.5 -31t-30.5 -74zM152 780q0 -43 30.5 -73.5t73.5 -30.5t73.5 30.5t30.5 73.5t-30.5 74t-73.5 31t-73.5 -31t-30.5 -74z" />
<glyph unicode=";" horiz-adv-x="512" d="M45 -180q0 -35 24.5 -56.5t57.5 -21.5q41 0 60.5 23.5t35.5 52.5l115 225q23 45 22 76q0 35 -24.5 56.5t-56.5 21.5q-41 0 -60.5 -23.5t-36.5 -52.5l-114 -225q-23 -45 -23 -76zM152 780q0 -43 30.5 -73.5t73.5 -30.5t73.5 30.5t30.5 73.5t-30.5 74t-73.5 31t-73.5 -31 t-30.5 -74z" />
<glyph unicode="&#x3c;" horiz-adv-x="1228" d="M94 518q0 -31 16.5 -52.5t57.5 -41.5l799 -399q33 -16 57.5 -26.5t42.5 -10.5q27 0 47.5 21.5t20.5 53.5q0 33 -21.5 49.5t-44.5 28.5l-762 377l762 377q23 12 44.5 28.5t21.5 49.5t-20.5 54.5t-47.5 21.5q-18 0 -43 -10.5t-57 -26.5l-799 -400q-41 -20 -57.5 -41.5 t-16.5 -52.5z" />
<glyph unicode="=" horiz-adv-x="1228" d="M96 305q0 -43 24.5 -63.5t63.5 -20.5h860q39 0 64 20.5t25 63.5t-25 63.5t-64 20.5h-860q-39 0 -63.5 -20.5t-24.5 -63.5zM96 731q0 -43 24.5 -63.5t63.5 -20.5h860q39 0 64 20.5t25 63.5t-25 63.5t-64 20.5h-860q-39 0 -63.5 -20.5t-24.5 -63.5z" />
<glyph unicode="&#x3e;" horiz-adv-x="1228" d="M94 63q0 -33 20.5 -54t47.5 -21q18 0 42.5 10t57.5 27l799 399q41 20 57.5 41.5t16.5 52.5t-16.5 52.5t-57.5 41.5l-799 400q-33 16 -57.5 26.5t-42.5 10.5q-27 0 -47.5 -21.5t-20.5 -54.5t21.5 -49.5t44.5 -28.5l762 -377l-762 -377q-23 -12 -44.5 -28.5t-21.5 -49.5z " />
<glyph unicode="?" horiz-adv-x="909" d="M37 1161q-2 -43 25.5 -68.5t62.5 -25.5q29 0 47 13.5t33 54.5q35 98 95 133t142 35q104 0 171 -60.5t67 -165.5q0 -29 -7 -62.5t-26.5 -64t-56.5 -56.5t-98 -38q-53 -10 -82 -20.5t-43.5 -24.5t-16.5 -35.5t-2 -56.5v-232q0 -45 24.5 -70.5t65.5 -25.5t65.5 25.5 t24.5 70.5v205q154 33 249 134.5t95 267.5q0 82 -33.5 150.5t-92 118.5t-138.5 78.5t-172 28.5q-72 0 -141.5 -22.5t-125.5 -64.5t-92 -98t-40 -124zM334 92q0 -43 30.5 -73.5t73.5 -30.5t74 30.5t31 73.5t-31 74t-74 31t-73.5 -31t-30.5 -74z" />
<glyph unicode="@" horiz-adv-x="1638" d="M74 729q0 -156 60.5 -292t166 -235.5t247.5 -156.5t304 -57q102 0 209.5 32.5t196 81t145.5 102.5t57 97q0 23 -14 35t-37 12q-43 0 -85 -34.5t-100.5 -77.5t-143.5 -78t-214 -35q-135 0 -251.5 45t-202.5 125t-134.5 191.5t-48.5 244.5q0 127 47.5 237.5t130 192.5 t195.5 129t246 47q111 0 212 -33.5t179 -97t124 -157t46 -211.5q0 -80 -23.5 -153t-62.5 -129t-87 -90t-97 -34q-31 0 -44.5 16.5t-13.5 42.5q0 20 5.5 41t11.5 43l127 439q10 33 13 48t3 25q0 25 -20.5 35t-44.5 10q-33 0 -52.5 -12t-29.5 -47l-27 -82q-41 84 -102.5 119 t-137.5 35q-104 0 -189 -46t-145.5 -122t-94 -170t-33.5 -193q0 -66 23.5 -124t65.5 -102t98 -69.5t122 -25.5q68 0 131 34.5t104 82.5h4q20 -117 144 -117q68 0 155.5 32.5t166.5 102.5t132.5 177.5t53.5 256.5q0 135 -57.5 248t-156 193.5t-228.5 124.5t-275 44 q-160 0 -300 -57t-245.5 -157.5t-167 -235.5t-61.5 -291zM545 631q0 57 18.5 120.5t54 116t91 86t129.5 33.5q154 0 153 -147q0 -43 -15 -109.5t-48 -130t-86.5 -109t-128.5 -45.5q-70 0 -119 51.5t-49 133.5z" />
<glyph unicode="A" horiz-adv-x="1253" d="M20 63q0 -35 26 -55t60 -20q37 0 57.5 19.5t31.5 47.5l94 262h676l94 -262q10 -29 30.5 -48t57.5 -19q35 0 60.5 20.5t25.5 54.5q0 18 -10.5 47t-14.5 44l-452 1206q-16 47 -46 78.5t-83 31.5t-83 -31.5t-46 -78.5l-453 -1206q-4 -14 -14.5 -43t-10.5 -48zM344 473 l281 789h4l280 -789h-565z" />
<glyph unicode="B" horiz-adv-x="1099" d="M119 98q0 -41 22.5 -69.5t73.5 -28.5h346q115 0 204 35t149.5 93t92 135t31.5 163q0 72 -24.5 135.5t-67.5 110.5t-100.5 77.5t-122.5 36.5v5q90 29 146.5 113.5t56.5 205.5q0 61 -26 123.5t-75 113t-122.5 81t-170.5 30.5h-317q-51 0 -73.5 -28.5t-22.5 -69.5v-1262z M299 156v538h262q72 0 126 -20.5t93 -57t58.5 -86t19.5 -104.5q0 -123 -86 -196.5t-219 -73.5h-254zM299 842v461h211q121 0 178 -63.5t57 -162.5q0 -100 -62 -167.5t-179 -67.5h-205z" />
<glyph unicode="C" horiz-adv-x="1214" d="M63 729q0 -141 41 -275.5t121 -237.5t200 -165.5t277 -62.5q96 0 180.5 18.5t148 48t99 65.5t35.5 70q0 39 -19.5 61.5t-51.5 22.5q-29 0 -63 -20.5t-80 -45t-106.5 -45t-142.5 -20.5q-117 0 -200.5 52.5t-138 136.5t-81 188.5t-26.5 208.5t25.5 208.5t81 188.5 t142.5 136.5t208 52.5q84 0 137 -22.5t90 -49t63.5 -49.5t57.5 -23q35 0 54.5 26t19.5 60q0 29 -30 65t-85 69.5t-133 56t-174 22.5q-162 0 -284 -62t-203 -165.5t-122 -238t-41 -275.5z" />
<glyph unicode="D" horiz-adv-x="1290" d="M129 98q0 -41 22.5 -69.5t73.5 -28.5h379q147 0 263 54.5t196 151.5t122 232t42 299q0 145 -40 275.5t-121 229.5t-202 157.5t-284 58.5h-355q-51 0 -73.5 -28.5t-22.5 -69.5v-1262zM309 156v1147h246q129 0 220 -46.5t148.5 -124t84 -180t26.5 -215.5q0 -111 -25.5 -216 t-81 -186t-144.5 -130t-216 -49h-258z" />
<glyph unicode="E" horiz-adv-x="909" d="M119 98q0 -41 22.5 -69.5t73.5 -28.5h518q39 0 63.5 20.5t24.5 63.5t-24.5 63.5t-63.5 20.5h-434v477h395q39 0 63.5 20.5t24.5 63.5t-24.5 63.5t-63.5 20.5h-395v477h434q39 0 63.5 20.5t24.5 63.5t-24.5 63.5t-63.5 20.5h-518q-51 0 -73.5 -28.5t-22.5 -69.5v-1262z " />
<glyph unicode="F" horiz-adv-x="833" d="M119 84q0 -45 24.5 -70.5t65.5 -25.5t65.5 25.5t24.5 70.5v561h379q39 0 63.5 20.5t24.5 63.5t-24.5 63.5t-63.5 20.5h-379v477h428q39 0 63.5 20.5t24.5 63.5t-24.5 63.5t-63.5 20.5h-512q-51 0 -73.5 -28.5t-22.5 -69.5v-1276z" />
<glyph unicode="G" horiz-adv-x="1366" d="M63 729q0 -141 41 -275.5t121 -237.5t200 -165.5t277 -62.5q186 0 306 60.5t191 158.5t98.5 224t27.5 257q0 86 -30.5 117t-100.5 31h-303q-39 0 -63.5 -20.5t-24.5 -63.5t24.5 -63.5t63.5 -20.5h254v-86q0 -74 -25.5 -152t-78 -141.5t-131.5 -104.5t-185 -41 q-127 0 -216 52.5t-145.5 136.5t-82 188.5t-25.5 208.5t25.5 208.5t82 188.5t143.5 136.5t210 52.5q98 0 164.5 -25.5t112.5 -56.5t81 -56.5t68 -25.5q39 0 62.5 25.5t23.5 60.5q0 29 -36 69t-101.5 76.5t-157.5 62t-205 25.5q-172 0 -297 -62t-207 -165.5t-122 -238 t-40 -275.5z" />
<glyph unicode="H" horiz-adv-x="1366" d="M119 96q0 -53 24.5 -80.5t65.5 -27.5t65.5 27.5t24.5 80.5v557h768v-557q0 -53 24.5 -80.5t65.5 -27.5t65.5 27.5t24.5 80.5v1266q0 53 -24.5 80.5t-65.5 27.5t-65.5 -27.5t-24.5 -80.5v-553h-768v553q0 53 -24.5 80.5t-65.5 27.5t-65.5 -27.5t-24.5 -80.5v-1266z" />
<glyph unicode="I" d="M119 84q0 -45 24.5 -70.5t65.5 -25.5t65.5 25.5t24.5 70.5v1290q0 45 -24.5 70.5t-65.5 25.5t-65.5 -25.5t-24.5 -70.5v-1290z" />
<glyph unicode="J" horiz-adv-x="757" d="M-14 152q0 -39 32.5 -70t79.5 -52.5t98.5 -31.5t88.5 -10q96 0 163.5 27.5t109.5 77.5t61.5 121t19.5 157v1003q0 45 -24.5 70.5t-65.5 25.5t-65.5 -25.5t-24.5 -70.5v-1022q0 -43 -7.5 -81t-25.5 -66.5t-49 -45t-78 -16.5q-57 0 -91 13.5t-57.5 29t-43 28.5t-50.5 13 q-33 0 -52 -20.5t-19 -54.5z" />
<glyph unicode="K" horiz-adv-x="1175" d="M119 84q0 -45 24.5 -70.5t65.5 -25.5t65.5 25.5t24.5 70.5v610l680 -667q29 -27 48.5 -33t39.5 -6q37 0 62.5 23.5t25.5 56.5q0 20 -7 36.5t-30 36.5l-653 631l598 539q16 14 26.5 30.5t10.5 51.5t-21.5 56t-56.5 21q-29 0 -51.5 -17t-46.5 -40l-625 -571v532 q0 45 -24.5 70.5t-65.5 25.5t-65.5 -25.5t-24.5 -70.5v-1290z" />
<glyph unicode="L" horiz-adv-x="796" d="M119 98q0 -41 22.5 -69.5t73.5 -28.5h469q39 0 63.5 20.5t24.5 63.5t-24.5 63.5t-63.5 20.5h-385v1206q0 45 -24.5 70.5t-65.5 25.5t-65.5 -25.5t-24.5 -70.5v-1276z" />
<glyph unicode="M" horiz-adv-x="1708" d="M59 80q0 -41 21.5 -66.5t62.5 -25.5q35 0 62.5 15t34.5 63l170 1171h4l348 -1176q14 -45 37.5 -59t54.5 -14t54.5 14t37.5 59l348 1176h4l170 -1171q6 -47 34 -62.5t63 -15.5q41 0 62.5 25.5t21.5 66.5q0 16 -3.5 35.5t-7.5 46.5l-198 1171q-14 78 -53 107.5t-89 29.5 q-53 0 -83.5 -21.5t-47.5 -72.5l-311 -1067h-4l-311 1067q-16 51 -47 72.5t-84 21.5q-49 0 -88 -29.5t-54 -107.5l-198 -1171q-4 -27 -7.5 -46.5t-3.5 -35.5z" />
<glyph unicode="N" horiz-adv-x="1368" d="M119 84q0 -45 24.5 -70.5t65.5 -25.5t65.5 25.5t24.5 70.5v1057h4l737 -1059q37 -53 61.5 -73.5t65.5 -20.5q82 0 82 106v1280q0 45 -24.5 70.5t-65.5 25.5t-65.5 -25.5t-24.5 -70.5v-1057h-4l-737 1059q-37 53 -61.5 73.5t-65.5 20.5q-82 0 -82 -106v-1280z" />
<glyph unicode="O" horiz-adv-x="1404" d="M63 729q0 -141 41 -275.5t122 -237.5t201 -165.5t275 -62.5q156 0 276 62.5t201 165.5t121.5 237.5t40.5 275.5t-40.5 275.5t-121.5 238t-201 165.5t-276 62t-275.5 -62t-200.5 -165.5t-122 -238t-41 -275.5zM256 729q0 104 23.5 208.5t77 188.5t138.5 136.5t207 52.5 q123 0 208 -52.5t138.5 -136.5t77 -188t23.5 -209q0 -104 -23.5 -208.5t-77 -188.5t-138.5 -136.5t-208 -52.5t-207.5 52.5t-138 136.5t-77 188.5t-23.5 208.5z" />
<glyph unicode="P" horiz-adv-x="1062" d="M119 84q0 -45 24.5 -70.5t65.5 -25.5t65.5 25.5t24.5 70.5v461h279q100 0 185 35.5t147.5 97t98 144.5t35.5 177q0 96 -32.5 179.5t-94 145.5t-148.5 98t-198 36h-356q-51 0 -73.5 -28.5t-22.5 -69.5v-1276zM299 700v603h258q84 0 142.5 -28t95 -71t53 -97t16.5 -108 q0 -61 -21.5 -116.5t-61.5 -95t-94 -63.5t-122 -24h-266z" />
<glyph unicode="Q" horiz-adv-x="1402" d="M63 729q0 -141 41 -275.5t122 -237.5t201 -165.5t275 -62.5q127 0 228.5 42t179.5 115l143 -141q10 -10 26.5 -21.5t43.5 -11.5q35 0 56.5 23.5t21.5 52.5q0 23 -9.5 39t-25.5 33l-152 149q63 98 95 216t32 245q0 141 -40.5 275.5t-121.5 238t-201 165.5t-276 62 t-275.5 -62t-200.5 -165.5t-122 -238t-41 -275.5zM256 729q0 104 23.5 208.5t77 188.5t138.5 136.5t207 52.5q123 0 208 -52.5t138.5 -136.5t77 -188t23.5 -209q0 -86 -15.5 -172t-50.5 -160l-100 99q-32 32 -66 32h-2q-35 0 -57 -23.5t-22 -58.5q0 -20 10 -35.5t26 -31.5 l121 -119q-53 -55 -124.5 -86t-166.5 -31q-123 0 -207.5 52.5t-138 136.5t-77 188.5t-23.5 208.5z" />
<glyph unicode="R" horiz-adv-x="1062" d="M119 84q0 -45 24.5 -70.5t65.5 -25.5t65.5 25.5t24.5 70.5v555l557 -610q16 -16 34.5 -28.5t47.5 -12.5q35 0 58.5 20.5t23.5 48.5q0 45 -35 82l-465 510l78 2q82 4 153.5 27.5t126 73t86 126t31.5 187.5q0 90 -37.5 161.5t-99 124t-142.5 80t-167 27.5h-334 q-51 0 -73.5 -28.5t-22.5 -69.5v-1276zM299 784v519h242q63 0 113.5 -20.5t86 -54.5t55 -79t19.5 -96q0 -141 -64.5 -205t-205.5 -64h-246z" />
<glyph unicode="S" horiz-adv-x="985" d="M43 164q0 -39 36 -71t94 -55.5t131 -36.5t145 -13q119 0 211 37.5t154.5 101t95 147.5t32.5 175q0 123 -51 197.5t-128 120.5t-167 74.5t-167 61.5t-128 79t-51 126q0 92 65.5 149.5t165.5 57.5q68 0 110 -14.5t71.5 -33t52 -32.5t53.5 -14q35 0 56.5 23.5t21.5 55.5 q0 35 -31 67t-81 54.5t-114.5 35.5t-132.5 13q-100 0 -180 -34.5t-135 -89t-85 -121t-30 -129.5q0 -119 51.5 -189.5t128 -114.5t167 -73t167 -61.5t128 -82t51.5 -135.5q0 -61 -20.5 -114.5t-59.5 -94.5t-94.5 -64.5t-124.5 -23.5q-70 0 -121 17.5t-91 39t-69 39t-51 17.5 q-39 0 -57.5 -27.5t-18.5 -64.5z" />
<glyph unicode="T" horiz-adv-x="909" d="M4 1374q0 -43 24.5 -63.5t63.5 -20.5h273v-1206q0 -45 24.5 -70.5t65.5 -25.5t65.5 25.5t24.5 70.5v1206h272q39 0 63.5 20.5t24.5 63.5t-24.5 63.5t-63.5 20.5h-725q-39 0 -63.5 -20.5t-24.5 -63.5z" />
<glyph unicode="U" horiz-adv-x="1368" d="M119 578q0 -184 53 -299t136 -179.5t182.5 -88t193.5 -23.5t193.5 23.5t182.5 88t136 179t53 299.5v796q0 45 -24.5 70.5t-65.5 25.5t-65.5 -25.5t-24.5 -70.5v-866q0 -172 -106.5 -268.5t-278.5 -96.5t-278.5 96.5t-106.5 268.5v866q0 45 -24.5 70.5t-65.5 25.5 t-65.5 -25.5t-24.5 -70.5v-796z" />
<glyph unicode="V" horiz-adv-x="1138" d="M8 1397q0 -33 12 -70l445 -1241q16 -45 36.5 -71.5t67.5 -26.5t67.5 26.5t37.5 71.5l444 1241q12 37 12 70q0 29 -21.5 51t-57.5 22q-53 0 -74 -34.5t-37 -81.5l-369 -1063h-4l-368 1063q-16 47 -37 81.5t-74 34.5q-37 0 -58.5 -22.5t-21.5 -50.5z" />
<glyph unicode="W" horiz-adv-x="1708" d="M51 1389q0 -16 2 -38t8 -55l222 -1190q4 -25 12 -46t22.5 -37.5t38 -25.5t56.5 -9q53 0 85.5 21.5t55.5 96.5l299 1070h4l299 -1070q23 -76 55.5 -97t85.5 -21q68 0 94.5 35.5t34.5 82.5l222 1190q6 33 8 54.5t2 38.5q0 35 -21.5 58t-60.5 23q-84 0 -98 -84l-191 -1165 h-4l-336 1178q-12 41 -34.5 56t-57.5 15t-57.5 -15t-34.5 -56l-336 -1178h-4l-191 1165q-14 84 -98 84q-39 0 -60.5 -23.5t-21.5 -57.5z" />
<glyph unicode="X" horiz-adv-x="1216" d="M18 63q0 -33 26 -54t56 -21q23 0 42.5 9t47.5 48l418 596l418 -596q29 -39 48.5 -48t41.5 -9q31 0 56.5 21.5t25.5 53.5q0 23 -9 41.5t-20 32.5l-456 645l381 539q29 41 28 74q0 35 -23.5 55t-56.5 20q-23 0 -44 -10t-48 -47l-342 -500l-342 500q-27 37 -48 47t-44 10 q-33 0 -56.5 -20t-23.5 -55q0 -33 29 -74l381 -539l-457 -645q-10 -14 -19.5 -32.5t-9.5 -41.5z" />
<glyph unicode="Y" horiz-adv-x="1024" d="M2 1397q0 -31 29 -76l391 -637v-600q0 -45 24.5 -70.5t65.5 -25.5t65.5 25.5t24.5 70.5v600l391 637q29 45 29 76q0 35 -23.5 54t-58.5 19q-25 0 -47.5 -11t-42.5 -46l-338 -551l-338 551q-20 35 -42.5 46t-47.5 11q-35 0 -58.5 -19t-23.5 -54z" />
<glyph unicode="Z" horiz-adv-x="1138" d="M49 82q0 -39 24.5 -60.5t82.5 -21.5h845q39 0 64 19.5t25 58.5t-25 58.5t-64 19.5h-735l752 1124q29 41 37 63.5t8 51.5q0 25 -24.5 44t-69.5 19h-797q-39 0 -63.5 -19.5t-24.5 -58.5t24.5 -58t63.5 -19h662l-750 -1125q-23 -33 -29 -53.5t-6 -42.5z" />
<glyph unicode="[" horiz-adv-x="493" d="M156 -70q0 -41 22.5 -69.5t73.5 -28.5h141q33 0 55.5 22.5t22.5 55.5t-22.5 55.5t-55.5 22.5h-69v1327h69q33 0 55.5 22.5t22.5 55.5t-22.5 55t-55.5 22h-141q-51 0 -73.5 -28.5t-22.5 -69.5v-1442z" />
<glyph unicode="\" horiz-adv-x="833" d="M41 1395q0 -27 29 -90l559 -1256q10 -25 29.5 -43t54.5 -18t57.5 20.5t22.5 54.5q0 27 -29 91l-559 1255q-10 25 -29.5 43t-54.5 18t-57.5 -20t-22.5 -55z" />
<glyph unicode="]" horiz-adv-x="493" d="M23 -90q0 -33 22.5 -55.5t54.5 -22.5h142q51 0 73.5 28.5t22.5 69.5v1442q0 41 -22.5 69.5t-73.5 28.5h-142q-33 0 -55 -22.5t-22 -54.5q0 -33 22.5 -55.5t54.5 -22.5h70v-1327h-70q-33 0 -55 -22.5t-22 -55.5z" />
<glyph unicode="^" horiz-adv-x="1228" d="M115 659q0 -29 21.5 -48t53.5 -19q35 0 54.5 24.5t48.5 77.5l321 596l322 -596q29 -53 48.5 -77.5t53.5 -24.5q33 0 54.5 19.5t21.5 47.5q0 23 -12 45.5t-23 43.5l-358 638q-20 35 -43 59.5t-64 24.5t-63.5 -24.5t-42.5 -59.5l-358 -638q-10 -20 -22.5 -43t-12.5 -46z " />
<glyph unicode="_" horiz-adv-x="1024" d="M-59 -205q0 -25 17 -38t42 -13h1024q25 0 42 13.5t17 37.5q0 25 -17 38t-42 13h-1024q-25 0 -42 -13t-17 -38z" />
<glyph unicode="`" d="M-18 1434q0 -18 14 -39t57 -37l236 -96q27 -10 41 -14.5t28 -4.5q41 0 59.5 32t18.5 54q0 18 -14 39t-57 37l-236 96q-27 10 -41 14.5t-29 4.5q-41 0 -59 -32t-18 -54z" />
<glyph unicode="a" horiz-adv-x="1138" d="M72 545q0 -109 31.5 -209t93 -178t150.5 -124t204 -46q88 0 162.5 40t134.5 124h4v-76q0 -47 27.5 -67.5t56.5 -20.5q27 0 55.5 20.5t28.5 67.5v938q0 47 -28.5 67.5t-55.5 20.5q-29 0 -56.5 -20.5t-27.5 -67.5v-58h-4q-63 70 -133 108t-164 38q-115 0 -204 -46 t-150.5 -124t-93 -178.5t-31.5 -208.5zM252 545q0 70 15.5 140.5t51 128.5t93 95t139.5 37q84 0 140.5 -37t92 -95t51 -129t15.5 -140q0 -70 -15.5 -140.5t-51 -129t-92 -95.5t-140.5 -37q-82 0 -139.5 37t-93 95.5t-51 129t-15.5 140.5z" />
<glyph unicode="b" horiz-adv-x="1138" d="M127 84q0 -45 24.5 -70.5t65.5 -25.5t65.5 25.5t24.5 70.5v53h4q77 -149 288 -149h3q111 0 197 46t146.5 124t91 178t30.5 209t-30.5 209t-91 178t-146.5 124t-197 46q-53 0 -99 -13.5t-83 -35t-63.5 -48t-45.5 -51.5h-4v531q0 45 -24.5 70.5t-65.5 25.5t-65.5 -25.5 t-24.5 -70.5v-1401zM289 545q0 70 15 140.5t51 128.5t93.5 95t139.5 37q84 0 140 -37t92 -95t51.5 -129t15.5 -140q0 -70 -15.5 -140.5t-51.5 -129t-92 -95.5t-140 -37q-82 0 -139.5 37t-93.5 95.5t-51 129t-15 140.5z" />
<glyph unicode="c" horiz-adv-x="909" d="M72 545q0 -109 29.5 -209t91 -178t153.5 -124t217 -46q141 0 214 45t73 96q0 37 -19.5 56.5t-50.5 19.5q-20 0 -39.5 -9.5t-43 -21.5t-55.5 -21.5t-79 -9.5q-84 0 -143.5 37t-96 95.5t-54 129t-17.5 140.5t17.5 140.5t54 128.5t96 95t143.5 37q47 0 77 -9t53.5 -19.5 t43 -19.5t45.5 -9q33 0 53.5 23.5t20.5 52.5q0 55 -77 96t-216 41q-125 0 -217 -46t-153.5 -124t-91 -178t-29.5 -209z" />
<glyph unicode="d" horiz-adv-x="1138" d="M72 545q0 -109 30.5 -209t91 -178t146.5 -124t197 -46q213 0 290 149h4v-53q0 -45 25 -70.5t66 -25.5t65.5 25.5t24.5 70.5v1401q0 45 -24.5 70.5t-65.5 25.5t-66 -25.5t-25 -70.5v-531h-4q-18 25 -44.5 51.5t-63.5 48t-83 35t-99 13.5q-111 0 -197 -46t-146.5 -124 t-91 -178.5t-30.5 -208.5zM252 545q0 70 15.5 140.5t51 128.5t93 95t139.5 37q84 0 140.5 -37t92 -95t51 -128.5t15.5 -140.5t-15.5 -140.5t-51 -129t-92 -95.5t-140.5 -37q-82 0 -139.5 37t-93 95.5t-51 129t-15.5 140.5z" />
<glyph unicode="e" horiz-adv-x="1064" d="M53 545q0 -109 29 -209t90 -178t155.5 -124t225.5 -46q80 0 157.5 22.5t140 56t100.5 72.5t38 72q0 39 -20.5 59.5t-44.5 20.5q-25 0 -52.5 -22.5t-67.5 -50.5t-99.5 -51.5t-149.5 -23.5q-76 0 -135.5 26t-101.5 71t-63.5 105.5t-21.5 129.5h678q59 0 80 24.5t21 71.5 q0 98 -32 193.5t-91.5 170.5t-147.5 121t-198 46q-115 0 -206 -45t-153.5 -122t-96.5 -178.5t-34 -211.5zM233 610q2 61 19.5 123t54.5 110q37 47 95 77q51 26 121 26h20q74 0 129 -30.5t90 -79t52 -107.5t17 -119h-598z" />
<glyph unicode="f" horiz-adv-x="530" d="M12 1012q0 -78 90 -78h74v-850q0 -45 24.5 -70.5t65.5 -25.5t65.5 25.5t24.5 70.5v850h113q90 0 90 78t-90 78h-113v264q0 35 16.5 53t57.5 18h45q98 0 98 78q0 37 -33.5 57.5t-68.5 20.5h-55q-98 0 -169 -58.5t-71 -176.5v-256h-74q-90 0 -90 -78z" />
<glyph unicode="g" horiz-adv-x="1138" d="M72 545q0 -109 31.5 -209t93 -178t150.5 -124t204 -46q92 0 163.5 42t112.5 113h4v-94q0 -59 -14 -118.5t-48 -107.5t-91 -79t-143 -31q-74 0 -127.5 19.5t-94.5 44t-72.5 44t-62.5 19.5q-43 0 -59.5 -27.5t-16.5 -56.5q0 -35 39 -69.5t100.5 -63.5t135.5 -47t143 -18 q111 0 202 35.5t155.5 103t99.5 164t35 217.5v936q0 47 -29 67.5t-55 20.5q-37 0 -67 -20.5t-30 -67.5v-49h-4q-18 25 -46.5 49t-65.5 43.5t-79 32t-85 12.5q-115 0 -204 -46t-150.5 -124t-93 -178.5t-31.5 -208.5zM252 545q0 70 15.5 140.5t51 128.5t93 95t139.5 37 q84 0 140.5 -37t92 -95t51 -129t15.5 -140q0 -70 -15.5 -140.5t-51 -129t-92 -95.5t-140.5 -37q-82 0 -139.5 37t-93 95.5t-51 129t-15.5 140.5z" />
<glyph unicode="h" horiz-adv-x="1101" d="M119 84q0 -45 24.5 -70.5t65.5 -25.5t65.5 25.5t24.5 70.5v594q0 72 22.5 123t58.5 82.5t81 47t90 15.5t90 -15.5t81 -47t58.5 -82.5t22.5 -123v-594q0 -45 24.5 -70.5t65.5 -25.5t65.5 25.5t24.5 70.5v604q0 115 -36 194t-91 128t-121.5 70.5t-130.5 21.5 q-82 0 -162 -33t-139 -111l-4 5v522q0 45 -24.5 70.5t-65.5 25.5t-65.5 -25.5t-24.5 -70.5v-1401z" />
<glyph unicode="i" d="M98 1360q0 -47 32 -79t79 -32t78.5 32t31.5 79t-31.5 78.5t-78.5 31.5t-79 -31.5t-32 -78.5zM119 84q0 -45 24.5 -70.5t65.5 -25.5t65.5 25.5t24.5 70.5v922q0 45 -24.5 70.5t-65.5 25.5t-65.5 -25.5t-24.5 -70.5v-922z" />
<glyph unicode="j" d="M98 1360q0 -47 32 -79t79 -32t78.5 32t31.5 79t-31.5 78.5t-78.5 31.5t-79 -31.5t-32 -78.5zM119 -346q0 -45 24.5 -70.5t65.5 -25.5t65.5 25.5t24.5 70.5v1352q0 45 -24.5 70.5t-65.5 25.5t-65.5 -25.5t-24.5 -70.5v-1352z" />
<glyph unicode="k" horiz-adv-x="948" d="M119 84q0 -45 24.5 -70.5t65.5 -25.5t65.5 25.5t24.5 70.5v434l455 -475q33 -33 52 -44t52 -11q29 0 52.5 20.5t23.5 50.5q0 27 -8 46.5t-35 46.5l-475 469l409 323q27 20 36 38.5t9 39.5q0 35 -20.5 57.5t-54.5 22.5q-23 0 -48.5 -15.5t-54.5 -39.5l-393 -330v768 q0 45 -24.5 70.5t-65.5 25.5t-65.5 -25.5t-24.5 -70.5v-1401z" />
<glyph unicode="l" d="M119 84q0 -45 24.5 -70.5t65.5 -25.5t65.5 25.5t24.5 70.5v1401q0 45 -24.5 70.5t-65.5 25.5t-65.5 -25.5t-24.5 -70.5v-1401z" />
<glyph unicode="m" horiz-adv-x="1708" d="M119 84q0 -45 24.5 -70.5t65.5 -25.5t65.5 25.5t24.5 70.5v610q0 117 60.5 184.5t170.5 67.5q111 0 172.5 -67.5t61.5 -184.5v-610q0 -45 24.5 -70.5t65.5 -25.5t65.5 25.5t24.5 70.5v610q0 117 60.5 184.5t171.5 67.5t172 -67.5t61 -184.5v-610q0 -45 24.5 -70.5 t65.5 -25.5t65.5 25.5t24.5 70.5v604q0 115 -35.5 194t-91 128t-122 70.5t-130.5 21.5q-119 0 -196.5 -49t-136.5 -135q-61 104 -140.5 144t-158.5 40q-61 0 -105.5 -13.5t-77.5 -33t-54.5 -43t-37.5 -43.5l-4 4v33q0 45 -24.5 70.5t-65.5 25.5t-65.5 -25.5t-24.5 -70.5 v-922z" />
<glyph unicode="n" horiz-adv-x="1101" d="M119 84q0 -45 24.5 -70.5t65.5 -25.5t65.5 25.5t24.5 70.5v594q0 72 22.5 123t58.5 82.5t81 47t90 15.5t90 -15.5t81 -47t58.5 -82.5t22.5 -123v-594q0 -45 24.5 -70.5t65.5 -25.5t65.5 25.5t24.5 70.5v604q0 115 -36 194t-91 128t-121.5 70.5t-130.5 21.5 q-82 0 -162 -33t-139 -111l-4 5v43q0 45 -24.5 70.5t-65.5 25.5t-65.5 -25.5t-24.5 -70.5v-922z" />
<glyph unicode="o" horiz-adv-x="1101" d="M72 545q0 -109 31.5 -209t93 -178t150.5 -124t204 -46t204 46t150.5 124t93 178t31.5 209t-31.5 209t-93 178t-150.5 124t-204 46t-204 -46t-150.5 -124t-93 -178t-31.5 -209zM252 545q0 70 15.5 140.5t51 128.5t93 95t139.5 37q84 0 140.5 -37t92 -95t51 -129t15.5 -140 q0 -70 -15.5 -140.5t-51 -129t-92 -95.5t-140.5 -37q-82 0 -139.5 37t-93 95.5t-51 129t-15.5 140.5z" />
<glyph unicode="p" horiz-adv-x="1138" d="M127 -346q0 -45 24.5 -70.5t65.5 -25.5t65.5 25.5t24.5 70.5v481h4q18 -25 45 -51.5t64 -48t83 -34.5t99 -13q111 0 197 46t146.5 124t91 178t30.5 209t-30.5 209t-91 178t-146.5 124t-197 46q-213 0 -291 -150h-4v54q0 45 -24.5 70.5t-65.5 25.5t-65.5 -25.5 t-24.5 -70.5v-1352zM289 545q0 70 15 140.5t51 128.5t93.5 95t139.5 37q84 0 140 -37t92 -95t51.5 -129t15.5 -140q0 -70 -15.5 -140.5t-51.5 -129t-92 -95.5t-140 -37q-82 0 -139.5 37t-93.5 95.5t-51 129t-15 140.5z" />
<glyph unicode="q" horiz-adv-x="1138" d="M72 545q0 -109 30.5 -209t91 -178t146.5 -124t197 -46q53 0 99 13t83 34.5t63.5 48.5t44.5 51h4v-481q0 -45 25 -70.5t66 -25.5t65.5 25.5t24.5 70.5v1352q0 45 -24.5 70.5t-65.5 25.5t-66 -25.5t-25 -70.5v-54h-4q-78 150 -290 150q-111 0 -197 -46t-146.5 -124 t-91 -178t-30.5 -209zM252 545q0 70 15.5 140.5t51 128.5t93 95t139.5 37q84 0 140.5 -37t92 -95t51 -128.5t15.5 -140.5t-15.5 -140.5t-51 -129t-92 -95.5t-140.5 -37q-82 0 -139.5 37t-93 95.5t-51 129t-15.5 140.5z" />
<glyph unicode="r" horiz-adv-x="645" d="M119 84q0 -45 24.5 -70.5t65.5 -25.5t65.5 25.5t24.5 70.5v518q0 80 22.5 135.5t56.5 92t77 56t82 25.5q112 20 112 98q0 40 -26.5 66.5t-73.5 26.5q-39 0 -77 -17.5t-69.5 -45t-57.5 -61.5t-42 -65h-4v93q0 45 -24.5 70.5t-65.5 25.5t-65.5 -25.5t-24.5 -70.5v-922z" />
<glyph unicode="s" horiz-adv-x="909" d="M49 195q0 -35 32 -72t87 -66.5t130 -49t161 -19.5q76 0 147.5 20.5t126.5 62.5t89 104.5t34 148.5q0 80 -43 133t-107.5 91t-140.5 65.5t-140.5 55t-107.5 60.5t-43 80q0 70 56.5 103.5t134.5 33.5q66 0 106.5 -17.5t69.5 -38t52.5 -37.5t51.5 -17q41 0 61.5 22.5 t20.5 50.5q0 43 -35.5 78t-89 60.5t-118 40t-119.5 14.5q-68 0 -134.5 -19.5t-118.5 -58.5t-85 -96t-33 -133t43 -128.5t107.5 -90t140.5 -67.5t140.5 -60.5t107.5 -67.5t43 -90q0 -55 -56.5 -101.5t-154.5 -46.5q-74 0 -125 20.5t-90 46.5t-67.5 46t-59.5 20 q-29 0 -51.5 -22.5t-22.5 -58.5z" />
<glyph unicode="t" horiz-adv-x="532" d="M12 1012q0 -78 90 -78h74v-850q0 -45 24.5 -70.5t65.5 -25.5t65.5 25.5t24.5 70.5v850h74q90 0 90 78t-90 78h-74v235q0 45 -24.5 70.5t-65.5 25.5t-65.5 -25.5t-24.5 -70.5v-235h-74q-90 0 -90 -78z" />
<glyph unicode="u" horiz-adv-x="1101" d="M119 422q0 -119 37 -202t97 -135t138 -74.5t160 -22.5t159.5 22.5t138 74.5t97.5 135t37 202v584q0 45 -24.5 70.5t-65.5 25.5t-65.5 -25.5t-24.5 -70.5v-578q0 -285 -252 -285t-252 285v578q0 45 -24.5 70.5t-65.5 25.5t-65.5 -25.5t-24.5 -70.5v-584z" />
<glyph unicode="v" horiz-adv-x="872" d="M10 1018q0 -16 4 -32.5t15 -41.5l313 -878q14 -41 32.5 -59.5t61.5 -18.5t61.5 18.5t32.5 59.5l314 878q10 25 14 41t4 33q0 41 -24.5 62.5t-57.5 21.5q-45 0 -64.5 -19.5t-29.5 -50.5l-248 -753h-4l-248 753q-10 31 -29.5 50.5t-64.5 19.5q-33 0 -57.5 -21.5 t-24.5 -62.5z" />
<glyph unicode="w" horiz-adv-x="1519" d="M4 1022q0 -14 4 -31.5t10 -38.5l299 -870q18 -53 42 -73.5t63 -20.5q37 0 61.5 20.5t40.5 73.5l234 735h4l233 -735q16 -53 41 -73.5t62 -20.5q39 0 62.5 20.5t41.5 73.5l299 870q6 20 10.5 38t4.5 32q0 27 -19.5 53.5t-66.5 26.5q-29 0 -55.5 -16.5t-45.5 -75.5 l-231 -744h-4l-228 717q-18 59 -37.5 89t-68.5 30t-68.5 -30t-38.5 -89l-227 -717h-4l-232 744q-18 59 -44.5 75.5t-55.5 16.5q-47 0 -66.5 -26.5t-19.5 -53.5z" />
<glyph unicode="x" horiz-adv-x="950" d="M12 70q0 -35 23.5 -58.5t58.5 -23.5q51 0 80 41l301 417l301 -417q29 -41 80 -41q35 0 58.5 23.5t23.5 58.5q0 16 -7 36.5t-30 49.5l-321 422l282 370q31 39 31 72q0 35 -21.5 58.5t-54.5 23.5q-31 0 -47 -12.5t-31 -28.5l-264 -352l-264 352q-14 16 -30.5 28.5 t-47.5 12.5q-33 0 -54.5 -23.5t-21.5 -58.5q0 -33 31 -72l283 -370l-322 -422q-23 -29 -30 -49.5t-7 -36.5z" />
<glyph unicode="y" horiz-adv-x="909" d="M35 1026q0 -16 4 -34.5t20 -65.5l308 -887l-115 -305q-16 -47 -21.5 -65.5t-5.5 -35.5q0 -35 25.5 -55t56.5 -20q35 0 56.5 19.5t31.5 47.5l455 1301q16 47 20 65.5t4 34.5q0 35 -25.5 55.5t-55.5 20.5q-35 0 -55.5 -19.5t-30.5 -48.5l-246 -747h-4l-250 747 q-10 29 -32.5 48.5t-57.5 19.5q-31 0 -56.5 -20.5t-25.5 -55.5z" />
<glyph unicode="z" horiz-adv-x="909" d="M41 63q0 -23 17.5 -43t70.5 -20h649q90 0 90 78t-90 78h-489l-6 4l526 774q20 29 28.5 49.5t8.5 42.5q0 23 -17.5 43.5t-70.5 20.5h-606q-90 0 -91 -78q0 -78 91 -78h446l-520 -778q-20 -29 -28.5 -49.5t-8.5 -43.5z" />
<glyph unicode="{" horiz-adv-x="493" d="M-31 651q0 -35 21.5 -49t68.5 -29q37 -10 56.5 -33.5t29 -58.5t10.5 -80t1 -98v-250q0 -106 51 -163.5t158 -57.5h77q82 0 82 62q0 61 -82 61h-28q-41 0 -65.5 25.5t-24.5 72.5v324q0 84 -19.5 136t-47.5 81t-60.5 41t-59.5 14v4q27 4 59.5 15.5t60.5 40t47.5 81 t19.5 136.5v323q0 47 24.5 73t65.5 26h28q82 0 82 61t-82 61h-77q-106 0 -157.5 -57t-51.5 -164v-250q0 -53 -1 -99t-10.5 -81t-29 -57.5t-56.5 -32.5q-47 -12 -68.5 -27.5t-21.5 -50.5z" />
<glyph unicode="|" horiz-adv-x="454" d="M143 -512q0 -39 20.5 -63.5t63.5 -24.5t63.5 24.5t20.5 63.5v2048q0 39 -20.5 63.5t-63.5 24.5t-63.5 -24.5t-20.5 -63.5v-2048z" />
<glyph unicode="}" horiz-adv-x="493" d="M-31 -106q0 -61 82 -62h78q106 0 157.5 57.5t51.5 163.5v250q0 53 1 99.5t10 81t28.5 58t56.5 31.5q47 12 68.5 27.5t21.5 50.5t-21.5 49.5t-68.5 28.5q-37 10 -56.5 33.5t-28.5 58.5t-10 80t-1 98v250q0 106 -51 163.5t-158 57.5h-78q-82 0 -82 -61t82 -61h29 q41 0 65.5 -26t24.5 -73v-323q0 -84 19.5 -136.5t47 -81t60.5 -40t59 -15.5v-4q-27 -2 -59.5 -14t-60 -41t-47 -81t-19.5 -136v-324q0 -47 -24.5 -72.5t-65.5 -25.5h-29q-82 0 -82 -61z" />
<glyph unicode="~" horiz-adv-x="1228" d="M131 430q0 -23 20.5 -40t51.5 -19q37 0 61.5 21.5t44 47t41 48t53.5 22.5q39 0 86.5 -21.5t100.5 -48t111.5 -48t129.5 -21.5q47 0 95.5 20.5t86.5 53t61.5 75.5t23.5 86q0 23 -20.5 40.5t-51.5 19.5q-37 0 -60.5 -21.5t-44 -47.5t-42 -48.5t-54.5 -22.5q-39 0 -86 21.5 t-100 48.5t-111.5 48.5t-130.5 21.5q-47 0 -95 -20.5t-86 -53.5t-61.5 -76t-23.5 -86z" />
<glyph horiz-adv-x="1253" d="M20 63q0 -35 26 -55t60 -20q37 0 58 19q20 19 31 48l94 262h676l94 -262q10 -29 31 -48q20 -19 57 -19q35 0 60 20q26 20 26 55q0 18 -10 48q-10 29 -15 43l-452 1206q-16 47 -46 79t-83 31q-53 0 -83 -31q-30 -32 -46 -79l-453 -1206q-4 -14 -14 -43t-11 -48zM326 1675 q0 -47 31 -79q32 -32 79 -31q47 0 79 31q32 32 32 79t-32 79t-79 32t-79 -32q-31 -32 -31 -79zM344 473l281 789h4l280 -789h-565zM707 1675q0 -47 31 -79q32 -32 79 -31q47 0 79 31q32 32 32 79t-32 79t-79 32t-79 -32q-31 -32 -31 -79z" />
<glyph horiz-adv-x="1253" d="M20 63q0 -35 26 -55t60 -20q37 0 58 19q20 19 31 48l94 262h676l94 -262q10 -29 31 -48q20 -19 57 -19q35 0 60 20q26 20 26 55q0 18 -10 48q-10 29 -15 43l-452 1206q-16 47 -46 79t-83 31q-53 0 -83 -31q-30 -32 -46 -79l-453 -1206q-4 -14 -14 -43t-11 -48zM344 473 l281 789h4l280 -789h-565zM434 1696q0 -39 16 -75q15 -36 40 -61q26 -26 62 -41t75 -16q41 0 75 16q35 15 61 41t41 61q15 36 15 75q0 41 -15 76t-41 60q-26 26 -61 41t-75 15q-39 0 -75 -15t-62 -41t-40 -60q-16 -35 -16 -76zM532 1696q0 39 28 66q28 28 67 28t66 -28 q28 -28 28 -66q0 -39 -28 -67t-66 -27q-39 0 -67 27q-28 28 -28 67z" />
<glyph horiz-adv-x="909" d="M72 545q0 -98 24.5 -190.5t74.5 -167t127 -125t179 -66.5l-49 -72q-20 -31 -20 -51q0 -8 11 -23.5t50 -15.5q45 0 67.5 -4t22.5 -33q0 -31 -17.5 -43t-54.5 -12q-29 0 -57.5 8t-48.5 8q-23 0 -33 -17t-10 -38q0 -33 42 -52.5t107 -19.5q98 0 163 41t65 135q0 18 -9.5 38 t-28 36.5t-44 27.5t-60.5 11q-16 0 -25 -2l-18 -4l52 76q133 4 200.5 47t67.5 92q0 37 -19.5 56.5t-50.5 19.5q-20 0 -39.5 -9.5t-43 -21.5t-55.5 -21.5t-79 -9.5q-84 0 -143.5 37t-96 95.5t-54 129t-17.5 140.5t17.5 140.5t54 128.5t96 95t143.5 37q47 0 77 -9t53.5 -19.5 t43 -19.5t45.5 -9q33 0 53.5 23.5t20.5 52.5q0 55 -77 96t-216 41q-125 0 -217 -46t-153.5 -124t-91 -178.5t-29.5 -208.5z" />
<glyph horiz-adv-x="1064" d="M53 545q0 -109 29 -209t90 -178t156 -124q94 -46 225 -46q80 0 158 22q78 23 140 57t100 72q38 39 38 72q0 39 -20 59t-45 21q-25 0 -53 -23t-67 -50q-40 -28 -99 -51q-59 -24 -150 -24q-76 0 -135 26t-102 71q-42 45 -63 105q-22 60 -22 130h678q59 0 80 25q20 25 21 71 q0 98 -32 194q-32 95 -91 170t-148 121q-88 46 -198 46q-115 0 -206 -45t-154 -122q-62 -77 -96 -178t-34 -212zM233 610q2 61 20 123q17 61 54 110q37 48 94 78t142 25q74 0 129 -31t90 -78q35 -48 52 -108q17 -59 17 -119h-598zM305 1329q0 -23 19 -54q18 -32 59 -32 q14 0 29 4q14 4 41 15l235 96q43 16 57 37q14 20 15 39q0 23 -19 54q-18 32 -59 32q-14 0 -29 -4q-14 -4 -41 -15l-235 -96q-43 -16 -58 -37q-14 -20 -14 -39z" />
<glyph horiz-adv-x="1064" d="M53 545q0 -109 29 -209t90 -178t156 -124q94 -46 225 -46q80 0 158 22q78 23 140 57t100 72q38 39 38 72q0 39 -20 59t-45 21q-25 0 -53 -23t-67 -50q-40 -28 -99 -51q-59 -24 -150 -24q-76 0 -135 26t-102 71q-42 45 -63 105q-22 60 -22 130h678q59 0 80 25q20 25 21 71 q0 98 -32 194q-32 95 -91 170t-148 121q-88 46 -198 46q-115 0 -206 -45t-154 -122q-62 -77 -96 -178t-34 -212zM233 610q2 61 20 123q17 61 54 110q37 48 94 78t142 25q74 0 129 -31t90 -78q35 -48 52 -108q17 -59 17 -119h-598zM305 1434q0 -18 14 -39q14 -20 58 -37 l235 -96q27 -10 41 -15q14 -4 29 -4q41 0 59 32t19 54q0 18 -15 39q-14 20 -57 37l-235 96q-27 10 -41 15q-14 4 -29 4q-41 0 -59 -32t-19 -54z" />
<glyph horiz-adv-x="1064" d="M53 545q0 -109 29 -209t90 -178t156 -124q94 -46 225 -46q80 0 158 22q78 23 140 57t100 72q38 39 38 72q0 39 -20 59t-45 21q-25 0 -53 -23t-67 -50q-40 -28 -99 -51q-59 -24 -150 -24q-76 0 -135 26t-102 71q-42 45 -63 105q-22 60 -22 130h678q59 0 80 25q20 25 21 71 q0 98 -32 194q-32 95 -91 170t-148 121q-88 46 -198 46q-115 0 -206 -45t-154 -122q-62 -77 -96 -178t-34 -212zM221 1321q0 -33 20 -55q19 -23 54 -23q8 0 19 2t26 8l192 76l193 -76q14 -6 26 -8q11 -2 19 -2q35 0 54 23t20 55q0 51 -47 72l-265 112l-264 -112 q-47 -20 -47 -72zM233 610q2 61 20 123q17 61 54 110q37 48 94 78t142 25q74 0 129 -31t90 -78q35 -48 52 -108q17 -59 17 -119h-598z" />
<glyph horiz-adv-x="1101" d="M119 422q0 -119 37 -202t97 -135t138 -75t160 -22q82 0 160 22q78 23 138 75t97 135t37 202v584q0 45 -25 70q-25 26 -65 26q-41 0 -66 -26t-24 -70v-578q0 -285 -252 -285t-252 285v578q0 45 -25 70q-25 26 -65 26q-41 0 -66 -26t-24 -70v-584zM324 1434q0 -18 14 -39 q14 -20 57 -37l236 -96q27 -10 41 -15q14 -4 28 -4q41 0 60 32q18 32 18 54q0 18 -14 39q-14 20 -57 37l-236 96q-27 10 -41 15q-14 4 -29 4q-41 0 -59 -32t-18 -54z" />
<glyph horiz-adv-x="1101" d="M119 422q0 -119 37 -202t97 -135t138 -75t160 -22q82 0 160 22q78 23 138 75t97 135t37 202v584q0 45 -25 70q-25 26 -65 26q-41 0 -66 -26t-24 -70v-578q0 -285 -252 -285t-252 285v578q0 45 -25 70q-25 26 -65 26q-41 0 -66 -26t-24 -70v-584zM240 1321q0 -33 19 -55 q19 -23 54 -23q8 0 20 2q11 2 25 8l193 76l192 -76q14 -6 26 -8q11 -2 19 -2q35 0 55 23q19 23 19 55q0 51 -47 72l-264 112l-264 -112q-47 -20 -47 -72z" />
<glyph unicode="&#xa0;" horiz-adv-x="1253" d="M55 879q0 -43 24.5 -63.5t63.5 -20.5h400v-1149q0 -39 20.5 -63.5t63.5 -24.5t63.5 24.5t20.5 63.5v1149h399q39 0 63.5 20.5t24.5 63.5t-24.5 63.5t-63.5 20.5h-399v419q0 39 -20.5 63.5t-63.5 24.5t-63.5 -24.5t-20.5 -63.5v-419h-400q-39 0 -63.5 -20.5t-24.5 -63.5z " />
<glyph unicode="&#xa1;" horiz-adv-x="819" d="M117 1178q0 -61 22.5 -114.5t62.5 -93.5t93 -62.5t115 -22.5q61 0 114.5 22.5t93 62.5t62 93t22.5 115q0 61 -22.5 114.5t-62 93t-93 62t-114.5 22.5t-114.5 -22.5t-93.5 -62t-62.5 -93t-22.5 -114.5zM227 1178q0 76 53.5 129t129.5 53t129 -53.5t53 -128.5 q0 -76 -53.5 -129.5t-128.5 -53.5q-76 0 -129.5 53.5t-53.5 129.5z" />
<glyph unicode="&#xa2;" horiz-adv-x="909" d="M72 545q0 -96 23.5 -187.5t72.5 -165t123 -125t174 -69.5v-121q0 -18 11 -30.5t32 -12.5q20 0 31.5 12.5t11.5 30.5v111q150 0 224.5 45t74.5 96q0 37 -19.5 56.5t-50.5 19.5q-20 0 -39.5 -9.5t-44 -21.5t-58.5 -21.5t-87 -9.5v803q51 0 84 -9t56.5 -19.5t44 -19.5 t46.5 -9q33 0 53.5 23.5t20.5 52.5q0 55 -79 96t-226 41v110q0 18 -11.5 30.5t-31.5 12.5t-31.5 -12t-11.5 -31v-118q-100 -18 -174 -69.5t-123 -126.5t-72.5 -166t-23.5 -187zM252 545q0 57 12 116.5t38 112.5t66 94t97 62v-768q-57 20 -97 61t-66 93.5t-38 111.5t-12 117z " />
<glyph unicode="&#xa3;" horiz-adv-x="1214" d="M61 731q0 -43 25 -63.5t64 -20.5h206q10 -35 12.5 -69.5t2.5 -63.5q0 -92 -37 -157.5t-80 -114.5t-80 -86t-37 -70q0 -53 33 -69.5t76 -16.5h819q39 0 63.5 20.5t24.5 63.5t-24.5 63.5t-63.5 20.5h-690q43 37 75.5 82t55 91t34 90t11.5 81q0 47 -5 78t-9 57h223 q39 0 63.5 20.5t24.5 63.5t-24.5 63.5t-63.5 20.5h-264q-18 35 -37 67.5t-35 66.5t-26.5 70t-10.5 77q0 51 22.5 90t59.5 64.5t85 39t97 13.5q80 0 129 -20.5t80 -52.5t48.5 -69t33.5 -68.5t35.5 -52t54.5 -20.5q39 0 62.5 23.5t23.5 64.5q0 61 -39 124.5t-104.5 117 t-149.5 87t-176 33.5q-86 0 -166 -26.5t-141 -73.5t-98 -114.5t-37 -147.5q0 -82 31.5 -154.5t68.5 -138.5h-157q-39 0 -64 -20.5t-25 -63.5z" />
<glyph unicode="&#xa4;" horiz-adv-x="1138" d="M57 553q0 -109 56.5 -183.5t139.5 -128t181 -92t181 -77.5t139.5 -84t56.5 -111q0 -68 -65.5 -116t-188.5 -48q-74 0 -120 17.5t-75.5 45t-48 58.5t-35 58.5t-37 45t-53.5 17.5q-41 0 -65.5 -23.5t-24.5 -78.5q0 -35 29 -85.5t87 -96.5t144 -78.5t203 -34.5 q78 0 155 20.5t138 61.5t99 100t38 135q0 152 -133 242q49 27 90 64.5t71 83.5t46 96.5t16 101.5q0 111 -54 186.5t-134 128.5t-175 92t-175 78t-134.5 84t-54.5 111q0 84 71 128t169 44q72 0 117 -18.5t72.5 -46t44 -59.5t30.5 -59.5t33.5 -46t52.5 -18.5q41 0 61.5 29.5 t20.5 64.5q0 53 -30.5 108.5t-87 99.5t-133.5 72.5t-169 28.5q-94 0 -174 -22.5t-137 -65.5t-89 -105t-32 -142q0 -78 32 -128.5t101 -103.5q-55 -27 -100 -59.5t-79 -74.5t-52.5 -95t-18.5 -121zM238 567q0 47 18 84t49 65.5t72 51.5t86 41l256 -119q61 -29 97 -56.5 t55.5 -56t24.5 -58.5t5 -62q0 -29 -7 -57.5t-25.5 -59.5t-53.5 -65.5t-90 -75.5l-233 114q-123 59 -188.5 116.5t-65.5 137.5z" />
<glyph unicode="&#xa5;" horiz-adv-x="1024" d="M147 729q0 -76 29 -142.5t78 -115.5t115.5 -77.5t142.5 -28.5t142.5 28.5t115.5 77.5t78 115.5t29 142.5t-29 142.5t-78 115.5t-115.5 78t-142.5 29t-142.5 -29t-115.5 -78t-78 -115.5t-29 -142.5z" />
<glyph unicode="&#xa6;" horiz-adv-x="1228" d="M57 1083q0 -82 32 -151.5t89.5 -120.5t138 -78.5t179.5 -27.5v-1059q0 -39 20.5 -63.5t63.5 -24.5t63.5 24.5t20.5 63.5v1677h235v-1677q0 -39 20.5 -63.5t63.5 -24.5t63.5 24.5t20.5 63.5v1714q0 41 -22.5 69.5t-73.5 28.5h-391q-131 0 -228.5 -27.5t-163 -77.5 t-98.5 -119t-33 -151z" />
<glyph unicode="&#xa7;" horiz-adv-x="1138" d="M119 76q0 -47 28.5 -67.5t61.5 -20.5t61.5 20.5t28.5 67.5v1042q0 92 19.5 151.5t50 94.5t69.5 48t78 13q104 0 163.5 -69.5t59.5 -167.5q0 -76 -13 -122t-33.5 -73.5t-46 -40t-50.5 -20.5q-51 -16 -71.5 -31.5t-20.5 -58.5q0 -35 20.5 -53.5t71.5 -22.5q51 -2 96 -22.5 t79 -57.5t53.5 -92t19.5 -127q0 -70 -12.5 -128t-42 -100t-81 -65.5t-128.5 -23.5q-39 0 -53.5 -25t-14.5 -53q0 -37 26.5 -60.5t92.5 -23.5q96 0 172 43t128 110.5t78.5 151.5t26.5 166q0 72 -18.5 137.5t-53 119.5t-86 93t-116.5 55q84 57 121 142.5t37 201.5 q0 66 -29 132.5t-82 119.5t-128 87t-169 34q-88 0 -159.5 -28.5t-124 -84t-81 -135.5t-28.5 -180v-1077z" />
<glyph unicode="&#xa8;" horiz-adv-x="1638" d="M78 729q0 -154 58.5 -289t158.5 -235.5t235 -158.5t289 -58t289 58t235.5 158.5t159 235.5t58.5 289t-58.5 289t-159 235.5t-235.5 158.5t-289 58t-289 -58t-235 -158.5t-158.5 -235.5t-58.5 -289zM246 729q0 121 46 227.5t124 186.5t182 126t221 46t221.5 -46t182 -126 t124 -186.5t46.5 -227.5t-46.5 -227.5t-124 -186t-182 -126t-221.5 -46.5t-221 46.5t-182 126t-124 186t-46 227.5zM514 365q0 -66 68 -66t67 66v292h131l195 -313q16 -25 33.5 -35t48.5 -10q27 0 51.5 9t24.5 26q0 10 -7.5 25.5t-13.5 25.5l-182 279q88 10 149.5 63 t61.5 172q0 139 -78 191.5t-232 52.5h-270q-47 0 -47 -43v-735zM649 780v240h168q33 0 67 -3t60.5 -14.5t44 -33t17.5 -60.5q0 -45 -16.5 -70.5t-44 -39t-64.5 -16.5t-76 -3h-156z" />
<glyph unicode="&#xa9;" horiz-adv-x="1638" d="M78 729q0 -154 58.5 -289t158.5 -235.5t235 -158.5t289 -58t289 58t235.5 158.5t159 235.5t58.5 289t-58.5 289t-159 235.5t-235.5 158.5t-289 58t-289 -58t-235 -158.5t-158.5 -235.5t-58.5 -289zM246 729q0 121 46 227.5t124 186.5t182 126t221 46t221.5 -46t182 -126 t124 -186.5t46.5 -227.5t-46.5 -227.5t-124 -186t-182 -126t-221.5 -46.5t-221 46.5t-182 126t-124 186t-46 227.5zM389 733q0 -94 32 -177t88 -144.5t136 -96t178 -34.5q92 0 162 31.5t115 75.5t67.5 89t22.5 70q0 35 -22.5 46t-43.5 11q-35 0 -55 -29.5t-48 -64.5 t-72 -64.5t-126 -29.5q-61 0 -110 25.5t-84 69.5t-53.5 101.5t-18.5 120.5q0 137 67.5 227.5t198.5 90.5q82 0 124 -29t66.5 -62.5t46 -62.5t62.5 -29q31 0 49.5 15.5t18.5 42.5q0 29 -21.5 72.5t-65.5 84.5t-113.5 72t-166.5 31q-100 0 -181 -35t-137 -95.5t-86 -143.5 t-30 -179z" />
<glyph unicode="&#xaa;" horiz-adv-x="2027" d="M119 1391q0 -68 65 -68h195v-625q0 -39 20.5 -63.5t63.5 -24.5t63.5 24.5t20.5 63.5v625h194q66 0 66 68t-66 67h-557q-66 0 -65 -67zM971 688q0 -33 22.5 -55.5t55.5 -22.5t55 22.5t22 55.5v590h4l222 -592q16 -41 35.5 -58.5t52.5 -17.5t52 17.5t36 58.5l221 592h4 v-590q0 -33 22.5 -55.5t55.5 -22.5t55.5 22.5t22.5 55.5v645q0 137 -129 137q-41 0 -79 -15t-59 -64l-200 -535l-205 535q-20 49 -58 64t-79 15q-129 0 -129 -137v-645z" />
<glyph unicode="&#xab;" d="M-18 1329q0 -23 18 -54.5t59 -31.5q14 0 28.5 4t41.5 15l236 96q43 16 57 36.5t14 39.5q0 23 -18.5 54.5t-59.5 31.5q-14 0 -28.5 -4.5t-40.5 -14.5l-236 -96q-43 -16 -57 -36.5t-14 -39.5z" />
<glyph unicode="&#xac;" d="M-92 1348q0 -47 31.5 -79t78.5 -32t79 31.5t32 79.5q0 47 -31.5 78.5t-79.5 31.5q-47 0 -78.5 -31.5t-31.5 -78.5zM289 1348q0 -47 31.5 -79t78.5 -32t79 31.5t32 79.5q0 47 -32 78.5t-79 31.5t-78.5 -31.5t-31.5 -78.5z" />
<glyph unicode="&#xad;" horiz-adv-x="720" d="M72 549q0 -33 22.5 -55.5t55.5 -22.5h421q33 0 55.5 22.5t22.5 55.5t-22.5 55.5t-55.5 22.5h-421q-33 0 -55.5 -22.5t-22.5 -55.5z" />
<glyph unicode="&#xae;" horiz-adv-x="1554" d="M-18 53q0 -27 23.5 -46t60.5 -19q27 0 48 11t38 46l139 272h473v-219q0 -41 22.5 -69.5t73.5 -28.5h518q39 0 63.5 20.5t24.5 63.5t-24.5 63.5t-63.5 20.5h-434v477h395q39 0 63.5 20.5t24.5 63.5t-24.5 63.5t-63.5 20.5h-395v477h414q39 0 63.5 20.5t24.5 63.5 t-24.5 63.5t-63.5 20.5h-588q-25 0 -42 -2t-30.5 -10t-26 -23.5t-26.5 -42.5l-637 -1243q-16 -35 -21 -51t-5 -33zM369 473l391 776h4v-776h-395z" />
<glyph unicode="&#xaf;" horiz-adv-x="1404" d="M41 27q0 -18 15.5 -37t43.5 -19q20 0 37 10.5t27 22.5l125 148q78 -76 181 -120t232 -44q156 0 276 62.5t201 165.5t121.5 237.5t40.5 275.5q0 133 -35.5 258t-107.5 225l141 164q25 27 25 54q0 29 -20.5 43t-43.5 14q-35 0 -63 -35l-121 -143q-78 76 -181.5 118.5 t-232.5 42.5q-156 0 -275.5 -62t-200.5 -165.5t-122 -238t-41 -275.5q0 -133 35 -256t107 -227l-135 -158q-16 -20 -22.5 -34.5t-6.5 -26.5zM256 729q0 104 23.5 208.5t77 188.5t138.5 136.5t207 52.5q102 0 177 -36t129 -95l-680 -795q-39 78 -55.5 165t-16.5 175zM397 276 l682 797q37 -78 53.5 -166t16.5 -178q0 -104 -23.5 -208.5t-77 -188.5t-138.5 -136.5t-208 -52.5q-102 0 -176.5 35t-128.5 98z" />
<glyph unicode="&#xb1;" horiz-adv-x="1228" d="M96 84q0 -43 24.5 -63.5t63.5 -20.5h860q39 0 64 20.5t25 63.5t-25 63.5t-64 20.5h-860q-39 0 -63.5 -20.5t-24.5 -63.5zM96 639q0 -43 24.5 -63.5t63.5 -20.5h346v-225q0 -39 20.5 -63.5t63.5 -24.5t63.5 24.5t20.5 63.5v225h346q39 0 64 20.5t25 63.5t-25 63.5 t-64 20.5h-346v225q0 39 -20.5 63.5t-63.5 24.5t-63.5 -24.5t-20.5 -63.5v-225h-346q-39 0 -63.5 -20.5t-24.5 -63.5z" />
<glyph unicode="&#xb4;" horiz-adv-x="1097" d="M16 1403q0 -23 7.5 -41.5t23.5 -40.5l328 -506h-197q-35 0 -59.5 -16.5t-24.5 -50.5q0 -35 24.5 -51.5t59.5 -16.5h281v-145h-281q-35 0 -59.5 -16.5t-24.5 -51.5t24.5 -51.5t59.5 -16.5h281v-315q0 -45 24.5 -70.5t65.5 -25.5t65.5 25.5t24.5 70.5v315h281 q35 0 59.5 16.5t24.5 51.5t-25 51.5t-59 16.5h-281v145h281q35 0 59.5 16.5t24.5 51.5t-25 51t-59 16h-197l328 506q16 23 23 41t7 41q0 29 -23.5 48t-47.5 19q-25 0 -48.5 -12t-46.5 -45l-366 -551l-367 551q-23 33 -46 45t-48 12t-48.5 -19t-23.5 -48z" />
<glyph unicode="&#xb5;" horiz-adv-x="1101" d="M119 -346q0 -45 24.5 -70.5t65.5 -25.5t65.5 25.5t24.5 70.5v428q49 -53 111.5 -73.5t140.5 -20.5q74 0 139.5 13t118.5 46q16 -59 84 -59q41 0 65.5 25.5t24.5 70.5v922q0 45 -24.5 70.5t-65.5 25.5t-65.5 -25.5t-24.5 -70.5v-578q0 -152 -56.5 -218.5t-195.5 -66.5 t-195.5 66.5t-56.5 218.5v578q0 45 -24.5 70.5t-65.5 25.5t-65.5 -25.5t-24.5 -70.5v-1352z" />
<glyph unicode="&#xbb;" horiz-adv-x="739" d="M59 1137q0 -70 21.5 -131.5t62.5 -107.5t98.5 -71.5t129.5 -25.5q61 0 101 22.5t69 63.5h4v-33q0 -29 20.5 -41t46.5 -12q27 0 47.5 12t20.5 41v563q0 29 -20.5 41t-47.5 12t-47 -12t-20 -41v-33h-4q-29 41 -69 63.5t-101 22.5q-72 0 -129.5 -25.5t-98.5 -70.5 t-62.5 -106.5t-21.5 -130.5zM207 1137q0 41 12 79.5t33.5 67.5t53.5 46.5t71 17.5t70.5 -17.5t53 -46.5t34 -67.5t12.5 -79.5q0 -43 -12.5 -81t-34 -68t-53 -47t-70.5 -17t-71 17t-53.5 47t-33.5 68t-12 81z" />
<glyph unicode="&#xbc;" horiz-adv-x="716" d="M47 1137q0 -70 21.5 -131.5t62.5 -107.5t98.5 -71.5t128.5 -25.5q72 0 129.5 25.5t98.5 70.5t62.5 106.5t21.5 133.5q0 70 -21.5 131t-62.5 106t-98.5 70.5t-129.5 25.5t-129 -25.5t-98 -70.5t-62.5 -106t-21.5 -131zM195 1137q0 41 12 79.5t33.5 67.5t51.5 46.5t66 17.5 q37 0 68 -17.5t52.5 -46.5t32.5 -67.5t11 -79.5q0 -43 -11 -81t-32.5 -68t-52.5 -47t-68 -17t-66.5 17t-51 47t-33.5 68t-12 81z" />
<glyph unicode="&#xbe;" horiz-adv-x="1820" d="M72 545q0 -109 31.5 -209t93 -178t150.5 -124t204 -46q88 0 162.5 40t132.5 124h4v-76q0 -47 27.5 -67.5t56.5 -20.5q27 0 55.5 20.5t28.5 67.5v43h4q53 -66 137 -98.5t184 -32.5q72 0 145 22.5t130 56t93 72.5t34 72q0 39 -20.5 59.5t-45.5 20.5q-27 -2 -54.5 -23.5 t-64 -48t-91 -48t-138.5 -24.5q-80 -2 -140.5 27t-101 75t-63 105.5t-25.5 120.5h666q59 0 79.5 24.5t20.5 71.5q0 121 -38.5 219.5t-103 167t-146.5 106.5t-170 38q-55 0 -104.5 -16.5t-87.5 -39t-62.5 -45t-32.5 -32.5h-4v45q0 47 -28.5 67.5t-55.5 20.5 q-29 0 -56.5 -20.5t-27.5 -67.5v-58h-4q-61 70 -131 108t-164 38q-115 0 -204 -46t-150.5 -124t-93 -178.5t-31.5 -208.5zM252 545q0 70 15.5 140.5t51 128.5t93 95t139.5 37q84 0 140.5 -37t92 -95t51 -129t15.5 -140q0 -70 -15.5 -140.5t-51 -129t-92 -95.5t-140.5 -37 q-82 0 -139.5 37t-93 95.5t-51 129t-15.5 140.5zM1014 610q0 59 15 118.5t49 108t88.5 79t131.5 30.5q74 0 129.5 -30.5t90 -79t52 -107.5t17.5 -119h-573z" />
<glyph unicode="&#xbf;" horiz-adv-x="1101" d="M47 8q0 -23 17.5 -40t44.5 -17q37 0 65 39l86 104q57 -51 130 -78.5t161 -27.5q115 0 204 46t150.5 124t93 178t31.5 209q0 98 -25.5 188t-76.5 168l98 117q14 16 21.5 29.5t7.5 33.5q0 25 -18.5 41.5t-45.5 16.5q-20 0 -35.5 -11.5t-27.5 -27.5l-84 -103q-55 47 -129 76 t-164 29q-115 0 -204 -46t-150.5 -124t-93 -178.5t-31.5 -208.5q0 -98 25.5 -190.5t78.5 -164.5l-92 -110q-37 -43 -37 -72zM252 545q0 70 15.5 140.5t51 128.5t93 95t139.5 37q59 0 106.5 -20.5t81.5 -55.5l-446 -538q-23 49 -32 104.5t-9 108.5zM362 219l447 539 q23 -51 32 -105.5t9 -107.5q0 -70 -15.5 -140.5t-51 -129t-92 -95.5t-140.5 -37q-59 0 -106.5 20.5t-82.5 55.5z" />
<glyph unicode="&#xc0;" horiz-adv-x="909" d="M37 -4q0 -82 33.5 -150.5t92 -119t138.5 -79t172 -28.5q72 0 141.5 22.5t126 64.5t93 98.5t38.5 123.5q2 43 -25.5 69t-62.5 26q-29 0 -47 -13.5t-32 -54.5q-35 -98 -95.5 -133t-142.5 -35q-104 0 -171 60.5t-67 164.5q0 29 7.5 63t27 64.5t56 56t98.5 37.5 q53 10 81.5 20.5t43 25t16.5 36t2 56.5v231q0 45 -24.5 70.5t-65.5 25.5t-65.5 -25.5t-24.5 -70.5v-205q-154 -33 -249 -134t-95 -267zM367 997q0 -43 30.5 -73.5t73.5 -30.5t73.5 30.5t30.5 73.5t-30.5 74t-73.5 31t-73.5 -31t-30.5 -74z" />
<glyph unicode="&#xc1;" horiz-adv-x="606" d="M199 997q0 -43 30.5 -73.5t73.5 -30.5t74 30.5t31 73.5t-31 74t-74 31t-73.5 -31t-30.5 -74zM213 -285q0 -45 24.5 -70.5t65.5 -25.5t65.5 25.5t24.5 70.5v887q0 45 -24.5 70.5t-65.5 25.5t-65.5 -25.5t-24.5 -70.5v-887z" />
<glyph unicode="&#xc2;" horiz-adv-x="1228" d="M96 731q0 -43 24.5 -63.5t63.5 -20.5h781v-338q0 -39 20.5 -63.5t63.5 -24.5t63.5 24.5t20.5 63.5v418q0 39 -20.5 63.5t-63.5 24.5h-865q-39 0 -63.5 -20.5t-24.5 -63.5z" />
<glyph unicode="&#xc4;" horiz-adv-x="1097" d="M-39 -360q0 -35 31 -58.5t102 -23.5q90 0 147.5 22.5t94.5 66.5t58.5 111.5t37.5 159.5l148 811h153q33 0 55.5 22.5t22.5 55.5t-22.5 55.5t-55.5 22.5h-127l41 227q20 111 57 163t109 52q59 0 88 14.5t29 51.5q0 33 -32 55t-103 22q-145 0 -217 -78.5t-103 -252.5 l-45 -254h-129q-33 0 -55.5 -22.5t-22.5 -55.5t22.5 -55.5t55.5 -22.5h102l-135 -760q-23 -129 -50.5 -191.5t-80.5 -62.5h-84q-92 0 -92 -75z" />
<glyph unicode="&#xc7;" horiz-adv-x="833" d="M78 549l203 -365q14 -25 30.5 -39t38.5 -14q29 0 55.5 17.5t26.5 54.5q0 25 -22 63l-170 283l170 282q23 39 22 64q0 37 -26.5 54.5t-55.5 17.5q-23 0 -39 -14.5t-30 -39.5zM401 549l203 -365q14 -25 30.5 -39t39.5 -14q29 0 55.5 17.5t26.5 54.5q0 25 -23 63l-170 283 l170 282q23 39 23 64q0 37 -27 54.5t-55 17.5q-23 0 -39.5 -14.5t-30.5 -39.5z" />
<glyph unicode="&#xc8;" horiz-adv-x="833" d="M78 203q0 -37 26.5 -54.5t55.5 -17.5q23 0 39 14.5t30 38.5l203 365l-203 364q-14 25 -30.5 39.5t-38.5 14.5q-29 0 -55.5 -17.5t-26.5 -54.5q0 -25 22 -64l170 -282l-170 -283q-23 -39 -22 -63zM401 203q0 -37 27 -54.5t55 -17.5q23 0 39.5 14.5t30.5 38.5l203 365 l-203 364q-14 25 -30.5 39.5t-39.5 14.5q-29 0 -55.5 -17.5t-26.5 -54.5q0 -25 23 -64l170 -282l-170 -283q-23 -39 -23 -63z" />
<glyph unicode="&#xc9;" horiz-adv-x="2048" d="M238 92q0 -43 30.5 -73.5t73.5 -30.5t73.5 30.5t30.5 73.5t-30.5 74t-73.5 31t-73.5 -31t-30.5 -74zM920 92q0 -43 30.5 -73.5t73.5 -30.5t73.5 30.5t30.5 73.5t-30.5 74t-73.5 31t-73.5 -31t-30.5 -74zM1602 92q0 -43 30.5 -73.5t73.5 -30.5t73.5 30.5t30.5 73.5 t-30.5 74t-73.5 31t-73.5 -31t-30.5 -74z" />
<glyph unicode="&#xcb;" horiz-adv-x="1253" d="M20 63q0 -35 26 -55t60 -20q37 0 58 19q20 19 31 48l94 262h676l94 -262q10 -29 31 -48q20 -19 57 -19q35 0 60 20q26 20 26 55q0 18 -10 48q-10 29 -15 43l-452 1206q-16 47 -46 79t-83 31q-53 0 -83 -31q-30 -32 -46 -79l-453 -1206q-4 -14 -14 -43t-11 -48zM344 473 l281 789h4l280 -789h-565zM399 1761q0 -18 15 -39q14 -20 57 -36l236 -97q27 -10 41 -14t28 -4q41 0 60 32q18 32 18 54q0 18 -14 39q-14 20 -58 37l-235 96q-27 10 -41 14t-29 4q-41 0 -59 -31q-18 -32 -19 -55z" />
<glyph unicode="&#xcc;" horiz-adv-x="1253" d="M20 63q0 -35 26 -55t60 -20q37 0 58 19q20 19 31 48l94 262h676l94 -262q10 -29 31 -48q20 -19 57 -19q35 0 60 20q26 20 26 55q0 18 -10 48q-10 29 -15 43l-452 1206q-16 47 -46 79t-83 31q-53 0 -83 -31q-30 -32 -46 -79l-453 -1206q-4 -14 -14 -43t-11 -48zM322 1669 q0 -33 22 -56q23 -24 45 -24q18 0 32 6q13 6 28 15q14 8 30 14t37 6q31 0 56 -6q26 -6 52 -14t54 -15q29 -6 63 -6q86 0 139 41q52 41 52 88q0 33 -23 57t-45 23q-18 0 -31 -6t-28 -14q-14 -8 -30 -15q-15 -6 -38 -6q-31 0 -56 6q-26 6 -51 15q-26 8 -55 14t-63 6 q-86 0 -138 -41t-52 -88zM344 473l281 789h4l280 -789h-565z" />
<glyph unicode="&#xcd;" horiz-adv-x="1404" d="M63 729q0 -141 41 -275t122 -238q81 -103 201 -166q120 -62 275 -62q156 0 276 62t201 166q81 103 121 238q41 134 41 275t-41 276q-41 134 -121 237q-81 103 -201 166q-120 62 -276 62t-275 -62q-120 -62 -201 -166q-81 -103 -122 -237q-41 -135 -41 -276zM256 729 q0 104 24 209q24 104 76 188q53 84 139 137q85 52 207 52q123 0 208 -52t139 -137q53 -84 76 -188q24 -104 24 -209q0 -104 -24 -209q-24 -104 -76 -188q-53 -84 -139 -136q-85 -52 -208 -53q-123 0 -207 53q-85 52 -139 136q-53 84 -76 188q-24 105 -24 209zM397 1669 q0 -33 23 -56q23 -24 45 -24q18 0 32 6q13 6 27 15q14 8 31 14q16 6 37 6q31 0 56 -6q26 -6 51 -14q26 -8 55 -15q29 -6 63 -6q86 0 138 41t53 88q0 33 -23 57t-45 23q-18 0 -32 -6q-13 -6 -27 -14t-30 -15q-15 -6 -38 -6q-31 0 -56 6q-26 6 -51 15q-26 8 -55 14t-63 6 q-86 0 -138 -41q-53 -41 -53 -88z" />
<glyph unicode="&#xce;" horiz-adv-x="1896" d="M63 729q0 -141 41 -275.5t122 -237.5t201 -165.5t275 -62.5q133 0 247 63.5t181 161.5h5v-115q0 -41 22.5 -69.5t73.5 -28.5h514q39 0 63.5 20.5t24.5 63.5t-24.5 63.5t-63.5 20.5h-430v477h395q39 0 63.5 20.5t24.5 63.5t-24.5 63.5t-63.5 20.5h-395v477h409 q39 0 63.5 20.5t24.5 63.5t-24.5 63.5t-63.5 20.5h-493q-51 0 -73.5 -28.5t-22.5 -69.5v-94q-80 90 -187.5 147t-245.5 57q-156 0 -275.5 -62t-200.5 -165.5t-122 -238t-41 -275.5zM256 729q0 104 23.5 208.5t77 188.5t138.5 136.5t207 52.5q123 0 208 -52.5t138.5 -136.5 t77 -188t23.5 -209q0 -104 -23.5 -208.5t-77 -188.5t-138.5 -136.5t-208 -52.5t-207.5 52.5t-138 136.5t-77 188.5t-23.5 208.5z" />
<glyph unicode="&#xcf;" horiz-adv-x="1857" d="M72 545q0 -109 31.5 -209t92 -178t148.5 -124t201 -46q127 0 228 60.5t167 152.5q55 -96 158.5 -154.5t257.5 -58.5q78 0 154.5 22.5t138 56t98.5 72.5t35 72q0 39 -20.5 59.5t-45.5 20.5q-27 -2 -54.5 -23.5t-65 -48t-93 -48t-139.5 -24.5q-82 -2 -145.5 23t-106.5 70 t-64.5 105.5t-21.5 129.5h678q59 0 79.5 24.5t20.5 71.5q0 98 -31.5 193.5t-93 170.5t-150.5 121t-204 46q-129 0 -229.5 -58.5t-155.5 -154.5q-66 96 -167 154.5t-228 58.5q-113 0 -201 -46t-148.5 -124t-92 -178t-31.5 -209zM252 545q0 70 15.5 140.5t51 128.5t92 95 t138.5 37t138 -37t92 -95t51.5 -129t15.5 -140q0 -70 -15.5 -140.5t-51.5 -129t-92 -95.5t-138 -37t-138.5 37t-92 95.5t-51 129t-15.5 140.5zM1026 610q0 59 17.5 118.5t54.5 108t93 79t134 30.5t134.5 -30.5t93 -79t54 -107.5t17.5 -119h-598z" />
<glyph unicode="&#xd0;" horiz-adv-x="1024" d="M0 549q0 -33 22.5 -55.5t55.5 -22.5h868q33 0 55.5 22.5t22.5 55.5t-22.5 55.5t-55.5 22.5h-868q-33 0 -55.5 -22.5t-22.5 -55.5z" />
<glyph unicode="&#xd1;" horiz-adv-x="2048" d="M-78 549q0 -33 22.5 -55.5t55.5 -22.5h2048q33 0 55.5 22.5t22.5 55.5t-22.5 55.5t-55.5 22.5h-2048q-33 0 -55.5 -22.5t-22.5 -55.5z" />
<glyph unicode="&#xd2;" horiz-adv-x="684" d="M39 1094q0 -35 24.5 -56.5t57.5 -21.5q41 0 60.5 23.5t35.5 52.5l115 225q23 45 22 76q0 35 -24.5 56t-57.5 21q-41 0 -60 -23.5t-36 -51.5l-115 -226q-23 -45 -22 -75zM330 1094q0 -35 24.5 -56.5t57.5 -21.5q41 0 60.5 23.5t35.5 52.5l115 225q23 45 22 76 q0 35 -24.5 56t-57.5 21q-41 0 -60.5 -23.5t-35.5 -51.5l-115 -226q-23 -45 -22 -75z" />
<glyph unicode="&#xd3;" horiz-adv-x="684" d="M39 1094q0 -35 24.5 -56.5t57.5 -21.5q41 0 60.5 23.5t35.5 52.5l115 225q23 45 22 76q0 35 -24.5 56t-57.5 21q-41 0 -60 -23.5t-36 -51.5l-115 -226q-23 -45 -22 -75zM330 1094q0 -35 24.5 -56.5t57.5 -21.5q41 0 60.5 23.5t35.5 52.5l115 225q23 45 22 76 q0 35 -24.5 56t-57.5 21q-41 0 -60.5 -23.5t-35.5 -51.5l-115 -226q-23 -45 -22 -75z" />
<glyph unicode="&#xd4;" d="M51 1094q0 -35 24.5 -56.5t57.5 -21.5q41 0 60.5 23.5t35.5 52.5l115 225q23 45 23 76q0 35 -25 56t-57 21q-41 0 -60.5 -23.5t-36.5 -51.5l-114 -226q-23 -45 -23 -75z" />
<glyph unicode="&#xd5;" d="M51 1094q0 -35 24.5 -56.5t57.5 -21.5q41 0 60.5 23.5t35.5 52.5l115 225q23 45 23 76q0 35 -25 56t-57 21q-41 0 -60.5 -23.5t-36.5 -51.5l-114 -226q-23 -45 -23 -75z" />
<glyph unicode="&#xd6;" horiz-adv-x="1228" d="M96 518q0 -43 24.5 -63.5t63.5 -20.5h860q39 0 64 20.5t25 63.5t-25 63.5t-64 20.5h-860q-39 0 -63.5 -20.5t-24.5 -63.5zM467 94q0 -61 43 -104t104 -43t104.5 43t43.5 104t-43 104.5t-105 43.5q-61 0 -104 -43.5t-43 -104.5zM467 942q0 -61 43 -104t104 -43t104.5 43 t43.5 104t-43 104.5t-105 43.5q-61 0 -104 -43.5t-43 -104.5z" />
<glyph unicode="&#xd8;" horiz-adv-x="909" d="M35 1026q0 -16 4 -35q4 -18 20 -65l308 -887l-115 -305q-16 -47 -22 -66q-5 -18 -5 -35q0 -35 26 -55t56 -20q35 0 57 19t31 48l455 1301q16 47 20 65t4 35q0 35 -25 55q-26 20 -56 21q-35 0 -56 -20q-20 -19 -30 -48l-246 -747h-4l-250 747q-10 29 -33 48t-57 20 q-31 0 -57 -21q-26 -20 -25 -55zM154 1348q0 -47 31 -79q32 -32 79 -32t79 32t32 79t-32 78q-32 32 -79 32t-79 -32q-31 -31 -31 -78zM535 1348q0 -47 31 -79q32 -32 79 -32t79 32t32 79t-32 78q-32 32 -79 32t-79 -32q-31 -31 -31 -78z" />
<glyph unicode="&#xd9;" horiz-adv-x="1024" d="M2 1397q0 -31 29 -76l391 -637v-600q0 -45 24 -71q25 -26 66 -25q41 0 66 25q25 26 24 71v600l391 637q29 45 29 76q0 35 -24 54t-58 19q-25 0 -47 -11q-23 -11 -43 -46l-338 -551l-338 551q-20 35 -43 46t-47 11q-35 0 -58 -19q-24 -19 -24 -54zM211 1675q0 -47 32 -79 t79 -31q47 0 78 31q32 32 32 79t-32 79t-78 32q-47 0 -79 -32t-32 -79zM592 1675q0 -47 32 -79t78 -31q47 0 79 31q32 32 32 79t-32 79t-79 32t-78 -32q-32 -32 -32 -79z" />
<glyph unicode="&#xda;" horiz-adv-x="344" d="M-186 27q0 -20 16 -38t51 -18q29 0 45.5 14.5t30.5 47.5l545 1306q18 43 23 61.5t5 31.5q0 18 -17 36.5t-54 18.5q-45 0 -72 -62l-545 -1306q-16 -41 -22 -60.5t-6 -31.5z" />
<glyph unicode="&#xdb;" horiz-adv-x="1097" d="M41 729q0 -88 24.5 -168t75.5 -137l-69 -72q-29 -29 -29 -57q0 -33 24.5 -53.5t45.5 -20.5q20 0 43 23l86 88q59 -55 139 -83t168 -28t168 27.5t139 83.5l86 -88q23 -23 43 -23t45 20.5t25 53.5q0 29 -29 57l-70 72q51 57 76 137t25 168t-24.5 168t-76.5 137l70 72 q29 29 29 57q0 33 -24.5 53.5t-45.5 20.5q-20 0 -43 -23l-86 -88q-59 55 -139 83t-168 28t-168 -27.5t-139 -83.5l-86 88q-23 23 -43 23t-45 -20.5t-25 -53.5q0 -29 29 -57l69 -72q-51 -57 -75.5 -137t-24.5 -168zM209 729q0 78 27.5 143.5t73.5 111.5t108.5 71.5 t130.5 25.5t130 -25.5t108.5 -71.5t74 -111.5t27.5 -143.5t-27.5 -143.5t-74 -111.5t-109 -71.5t-129.5 -25.5q-68 0 -130.5 25.5t-108.5 71.5t-73.5 111.5t-27.5 143.5z" />
<glyph unicode="&#xdc;" horiz-adv-x="530" d="M88 549l203 -365q14 -25 30.5 -39t38.5 -14q29 0 55.5 17.5t26.5 54.5q0 25 -22 63l-170 283l170 282q23 39 22 64q0 37 -26.5 54.5t-55.5 17.5q-23 0 -39 -14.5t-30 -39.5z" />
<glyph unicode="&#xdd;" horiz-adv-x="530" d="M88 203q0 -37 26.5 -54.5t55.5 -17.5q23 0 39 14.5t31 38.5l202 365l-202 364q-14 25 -30.5 39.5t-39.5 14.5q-29 0 -55.5 -17.5t-26.5 -54.5q0 -25 23 -64l170 -282l-170 -283q-23 -39 -23 -63z" />
<glyph unicode="&#xde;" horiz-adv-x="948" d="M12 1012q0 -78 90 -78h74v-850q0 -45 24.5 -70.5t65.5 -25.5t65.5 25.5t24.5 70.5v850h113q90 0 90 78t-90 78h-113v264q0 35 16.5 53t57.5 18h45q98 0 98 78q0 37 -33.5 57.5t-68.5 20.5h-55q-98 0 -169 -58.5t-71 -176.5v-256h-74q-90 0 -90 -78zM629 1360 q0 -47 31.5 -79t78.5 -32t79 32t32 79t-32 78.5t-79 31.5t-78.5 -31.5t-31.5 -78.5zM649 84q0 -45 24.5 -70.5t65.5 -25.5t65.5 25.5t24.5 70.5v922q0 45 -24.5 70.5t-65.5 25.5t-65.5 -25.5t-24.5 -70.5v-922z" />
<glyph unicode="&#xdf;" horiz-adv-x="948" d="M12 1012q0 -78 90 -78h74v-850q0 -45 24.5 -70.5t65.5 -25.5t65.5 25.5t24.5 70.5v850h113q90 0 90 78t-90 78h-113v264q0 35 16.5 53t57.5 18h45q98 0 98 78q0 37 -33.5 57.5t-68.5 20.5h-55q-98 0 -169 -58.5t-71 -176.5v-256h-74q-90 0 -90 -78zM649 84 q0 -45 24.5 -70.5t65.5 -25.5t65.5 25.5t24.5 70.5v1401q0 45 -24.5 70.5t-65.5 25.5t-65.5 -25.5t-24.5 -70.5v-1401z" />
<glyph unicode="&#xe0;" horiz-adv-x="1253" d="M55 109q0 -43 24.5 -63.5t63.5 -20.5h400v-379q0 -39 20.5 -63.5t63.5 -24.5t63.5 24.5t20.5 63.5v379h399q39 0 63.5 20.5t24.5 63.5t-24.5 63.5t-63.5 20.5h-399v643h399q39 0 63.5 20.5t24.5 63.5t-24.5 63.5t-63.5 20.5h-399v378q0 39 -20.5 63.5t-63.5 24.5 t-63.5 -24.5t-20.5 -63.5v-378h-400q-39 0 -63.5 -20.5t-24.5 -63.5t24.5 -63.5t63.5 -20.5h400v-643h-400q-39 0 -63.5 -20.5t-24.5 -63.5z" />
<glyph unicode="&#xe1;" horiz-adv-x="512" d="M145 621q0 -47 32 -79t79 -32t79 31.5t32 79.5q0 47 -32 78.5t-79 31.5t-79 -31.5t-32 -78.5z" />
<glyph unicode="&#xe2;" d="M51 -180q0 -35 24.5 -56.5t57.5 -21.5q41 0 60.5 23.5t35.5 52.5l115 225q23 45 23 76q0 35 -25 56.5t-57 21.5q-41 0 -60.5 -23.5t-36.5 -52.5l-114 -225q-23 -45 -23 -76z" />
<glyph unicode="&#xe3;" horiz-adv-x="684" d="M39 -180q0 -35 24.5 -56.5t57.5 -21.5q41 0 60.5 23.5t35.5 52.5l115 225q23 45 22 76q0 35 -24.5 56.5t-57.5 21.5q-41 0 -60 -23.5t-36 -52.5l-115 -225q-23 -45 -22 -76zM330 -180q0 -35 24.5 -56.5t57.5 -21.5q41 0 60.5 23.5t35.5 52.5l115 225q23 45 22 76 q0 35 -24.5 56.5t-57.5 21.5q-41 0 -60.5 -23.5t-35.5 -52.5l-115 -225q-23 -45 -22 -76z" />
<glyph unicode="&#xe4;" horiz-adv-x="2238" d="M94 1124q0 -68 19.5 -131t59.5 -110t98.5 -76t134.5 -29q78 0 135 29t97 76t59.5 110.5t19.5 130.5q0 68 -19.5 131.5t-59.5 110.5t-97.5 75.5t-134.5 28.5q-76 0 -134.5 -28.5t-98.5 -75.5t-59.5 -110.5t-19.5 -131.5zM229 1124q0 41 9.5 83t30 76t54 55.5t83.5 21.5 q49 0 82.5 -21.5t54 -55.5t30 -76t9.5 -83t-9.5 -83t-30 -75.5t-54 -55t-82.5 -21.5t-83 21.5t-54.5 55t-30 75.5t-9.5 83zM403 27q0 -20 16.5 -38t51.5 -18q29 0 45 14.5t31 47.5l545 1306q16 43 22 61.5t6 31.5q0 18 -17.5 36.5t-53.5 18.5q-45 0 -72 -62l-545 -1306 q-16 -41 -22.5 -60.5t-6.5 -31.5zM805 334q0 -68 19.5 -131.5t59.5 -110.5t98 -75.5t134 -28.5q78 0 135.5 28.5t97.5 75.5t59 110.5t19 131.5t-19 131t-59 110.5t-97.5 76t-135.5 28.5q-76 0 -134 -28.5t-98 -76t-59.5 -111t-19.5 -130.5zM940 334q0 41 9 83t29.5 75.5 t54.5 55t83 21.5t83 -21.5t54.5 -55t29.5 -75.5t9 -83t-9 -83t-29.5 -76t-54.5 -55.5t-83 -21.5t-83 21.5t-54.5 55.5t-29.5 76t-9 83zM1522 334q0 -68 19.5 -131.5t59 -110.5t98 -75.5t134.5 -28.5q78 0 135 28.5t97 75.5t59.5 110.5t19.5 131.5t-19.5 131t-59.5 110.5 t-97 76t-135 28.5q-76 0 -134.5 -28.5t-98 -76t-59 -111t-19.5 -130.5zM1657 334q0 41 9 83t29.5 75.5t54.5 55t83 21.5t83 -21.5t54.5 -55t29.5 -75.5t9 -83t-9 -83t-29.5 -76t-54.5 -55.5t-83 -21.5t-83 21.5t-54.5 55.5t-29.5 76t-9 83z" />
<glyph unicode="&#xe5;" horiz-adv-x="1253" d="M20 63q0 -35 26 -55t60 -20q37 0 58 19q20 19 31 48l94 262h676l94 -262q10 -29 31 -48q20 -19 57 -19q35 0 60 20q26 20 26 55q0 18 -10 48q-10 29 -15 43l-452 1206q-16 47 -46 79t-83 31q-53 0 -83 -31q-30 -32 -46 -79l-453 -1206q-4 -14 -14 -43t-11 -48zM315 1649 q0 -33 20 -56q19 -23 54 -22q8 0 20 2q11 2 25 8l193 76l192 -76q14 -6 26 -8q11 -2 19 -2q35 0 55 22q19 23 19 56q0 51 -47 71l-264 113l-265 -113q-47 -20 -47 -71zM344 473l281 789h4l280 -789h-565z" />
<glyph unicode="&#xe6;" horiz-adv-x="909" d="M119 98q0 -41 22 -69q23 -29 74 -29h518q39 0 64 20t24 64q0 43 -24 63q-25 20 -64 21h-434v477h395q39 0 64 21q25 20 24 63q0 43 -24 64q-25 20 -64 20h-395v477h434q39 0 64 21q25 20 24 63q0 43 -24 64q-25 20 -64 20h-518q-51 0 -74 -28q-23 -29 -22 -70v-1262z M143 1649q0 -33 20 -56q19 -23 54 -22q8 0 20 2q11 2 25 8l193 76l192 -76q14 -6 26 -8q11 -2 19 -2q35 0 54 22q19 23 20 56q0 51 -47 71l-264 113l-265 -113q-47 -20 -47 -71z" />
<glyph unicode="&#xe7;" horiz-adv-x="1253" d="M20 63q0 -35 26 -55t60 -20q37 0 58 19q20 19 31 48l94 262h676l94 -262q10 -29 31 -48q20 -19 57 -19q35 0 60 20q26 20 26 55q0 18 -10 48q-10 29 -15 43l-452 1206q-16 47 -46 79t-83 31q-53 0 -83 -31q-30 -32 -46 -79l-453 -1206q-4 -14 -14 -43t-11 -48zM344 473 l281 789h4l280 -789h-565zM399 1657q0 -23 19 -54q18 -32 59 -32q14 0 29 4q14 4 41 14l235 97q43 16 58 36q14 20 14 39q0 23 -18 55t-60 31q-14 0 -28 -4t-41 -14l-236 -96q-43 -16 -57 -37q-14 -20 -15 -39z" />
<glyph unicode="&#xe8;" horiz-adv-x="909" d="M119 98q0 -41 22 -69q23 -29 74 -29h518q39 0 64 20t24 64q0 43 -24 63q-25 20 -64 21h-434v477h395q39 0 64 21q25 20 24 63q0 43 -24 64q-25 20 -64 20h-395v477h434q39 0 64 21q25 20 24 63q0 43 -24 64q-25 20 -64 20h-518q-51 0 -74 -28q-23 -29 -22 -70v-1262z M154 1675q0 -47 31 -79q32 -32 79 -31q47 0 79 31q32 32 32 79t-32 79t-79 32t-79 -32q-31 -32 -31 -79zM535 1675q0 -47 31 -79q32 -32 79 -31q47 0 79 31q32 32 32 79t-32 79t-79 32t-79 -32q-31 -32 -31 -79z" />
<glyph unicode="&#xe9;" horiz-adv-x="909" d="M119 98q0 -41 22 -69q23 -29 74 -29h518q39 0 64 20t24 64q0 43 -24 63q-25 20 -64 21h-434v477h395q39 0 64 21q25 20 24 63q0 43 -24 64q-25 20 -64 20h-395v477h434q39 0 64 21q25 20 24 63q0 43 -24 64q-25 20 -64 20h-518q-51 0 -74 -28q-23 -29 -22 -70v-1262z M227 1761q0 -18 15 -39q14 -20 57 -36l236 -97q27 -10 40 -14q14 -4 29 -4q41 0 60 32q18 32 18 54q0 18 -14 39q-14 20 -58 37l-235 96q-27 10 -41 14t-29 4q-41 0 -59 -31q-18 -32 -19 -55z" />
<glyph unicode="&#xea;" d="M-18 1657q0 -23 18 -54q18 -32 59 -32q14 0 29 4q14 4 41 14l236 97q43 16 57 36t14 39q0 23 -18 55t-60 31q-14 0 -28 -4t-41 -14l-236 -96q-43 -16 -57 -37q-14 -20 -14 -39zM119 84q0 -45 24 -71q25 -26 66 -25q41 0 65 25q25 26 25 71v1290q0 45 -25 71t-65 25 q-41 0 -66 -25q-25 -26 -24 -71v-1290z" />
<glyph unicode="&#xeb;" d="M-102 1649q0 -33 19 -56t54 -22q8 0 20 2q11 2 25 8l193 76l192 -76q14 -6 26 -8q11 -2 19 -2q35 0 55 22q19 23 19 56q0 51 -47 71l-264 113l-264 -113q-47 -20 -47 -71zM119 84q0 -45 24 -71q25 -26 66 -25q41 0 65 25q25 26 25 71v1290q0 45 -25 71t-65 25 q-41 0 -66 -25q-25 -26 -24 -71v-1290z" />
<glyph unicode="&#xec;" d="M-92 1675q0 -47 32 -79t78 -31q47 0 79 31q32 32 32 79t-32 79t-79 32t-78 -32q-32 -32 -32 -79zM119 84q0 -45 24 -71q25 -26 66 -25q41 0 65 25q25 26 25 71v1290q0 45 -25 71t-65 25q-41 0 -66 -25q-25 -26 -24 -71v-1290zM289 1675q0 -47 32 -79t78 -31q47 0 79 31 q32 32 32 79t-32 79t-79 32t-78 -32q-32 -32 -32 -79z" />
<glyph unicode="&#xed;" d="M-18 1761q0 -18 14 -39q14 -20 57 -36l236 -97q27 -10 41 -14t28 -4q41 0 60 32q18 32 18 54q0 18 -14 39q-14 20 -57 37l-236 96q-27 10 -41 14t-29 4q-41 0 -59 -31q-18 -32 -18 -55zM119 84q0 -45 24 -71q25 -26 66 -25q41 0 65 25q25 26 25 71v1290q0 45 -25 71 t-65 25q-41 0 -66 -25q-25 -26 -24 -71v-1290z" />
<glyph unicode="&#xee;" horiz-adv-x="1404" d="M63 729q0 -141 41 -275t122 -238q81 -103 201 -166q120 -62 275 -62q156 0 276 62t201 166q81 103 121 238q41 134 41 275t-41 276q-41 134 -121 237q-81 103 -201 166q-120 62 -276 62t-275 -62q-120 -62 -201 -166q-81 -103 -122 -237q-41 -135 -41 -276zM256 729 q0 104 24 209q24 104 76 188q53 84 139 137q85 52 207 52q123 0 208 -52t139 -137q53 -84 76 -188q24 -104 24 -209q0 -104 -24 -209q-24 -104 -76 -188q-53 -84 -139 -136q-85 -52 -208 -53q-123 0 -207 53q-85 52 -139 136q-53 84 -76 188q-24 105 -24 209zM475 1657 q0 -23 19 -54q18 -32 59 -32q14 0 29 4q14 4 41 14l235 97q43 16 57 36t15 39q0 23 -19 55q-18 32 -59 31q-14 0 -29 -4q-14 -4 -41 -14l-235 -96q-43 -16 -58 -37q-14 -20 -14 -39z" />
<glyph unicode="&#xef;" horiz-adv-x="1404" d="M63 729q0 -141 41 -275t122 -238q81 -103 201 -166q120 -62 275 -62q156 0 276 62t201 166q81 103 121 238q41 134 41 275t-41 276q-41 134 -121 237q-81 103 -201 166q-120 62 -276 62t-275 -62q-120 -62 -201 -166q-81 -103 -122 -237q-41 -135 -41 -276zM256 729 q0 104 24 209q24 104 76 188q53 84 139 137q85 52 207 52q123 0 208 -52t139 -137q53 -84 76 -188q24 -104 24 -209q0 -104 -24 -209q-24 -104 -76 -188q-53 -84 -139 -136q-85 -52 -208 -53q-123 0 -207 53q-85 52 -139 136q-53 84 -76 188q-24 105 -24 209zM391 1649 q0 -33 20 -56q19 -23 54 -22q8 0 19 2t26 8l192 76l193 -76q14 -6 26 -8q11 -2 19 -2q35 0 54 22q19 23 20 56q0 51 -47 71l-265 113l-264 -113q-47 -20 -47 -71z" />
<glyph unicode="&#xf1;" horiz-adv-x="1404" d="M63 729q0 -141 41 -275t122 -238q81 -103 201 -166q120 -62 275 -62q156 0 276 62t201 166q81 103 121 238q41 134 41 275t-41 276q-41 134 -121 237q-81 103 -201 166q-120 62 -276 62t-275 -62q-120 -62 -201 -166q-81 -103 -122 -237q-41 -135 -41 -276zM256 729 q0 104 24 209q24 104 76 188q53 84 139 137q85 52 207 52q123 0 208 -52t139 -137q53 -84 76 -188q24 -104 24 -209q0 -104 -24 -209q-24 -104 -76 -188q-53 -84 -139 -136q-85 -52 -208 -53q-123 0 -207 53q-85 52 -139 136q-53 84 -76 188q-24 105 -24 209zM475 1761 q0 -18 14 -39q14 -20 58 -36l235 -97q27 -10 41 -14t29 -4q41 0 59 32t19 54q0 18 -15 39q-14 20 -57 37l-235 96q-27 10 -41 14t-29 4q-41 0 -59 -31q-18 -32 -19 -55z" />
<glyph unicode="&#xf2;" horiz-adv-x="1368" d="M119 578q0 -184 53 -299t136 -180t182 -88q99 -24 194 -23q94 0 194 23q99 24 182 88q83 65 136 180t53 299v796q0 45 -24 71q-25 26 -66 25q-41 0 -65 -25q-25 -26 -25 -71v-866q0 -172 -106 -268t-279 -97q-172 0 -278 97q-106 96 -107 268v866q0 45 -25 71t-65 25 q-41 0 -66 -25q-25 -26 -24 -71v-796zM457 1657q0 -23 18 -54q18 -32 60 -32q14 0 28 4t41 14l236 97q43 16 57 36t14 39q0 23 -18 55t-59 31q-14 0 -29 -4q-14 -4 -41 -14l-236 -96q-43 -16 -57 -37q-14 -20 -14 -39z" />
<glyph unicode="&#xf3;" horiz-adv-x="1368" d="M119 578q0 -184 53 -299t136 -180t182 -88q99 -24 194 -23q94 0 194 23q99 24 182 88q83 65 136 180t53 299v796q0 45 -24 71q-25 26 -66 25q-41 0 -65 -25q-25 -26 -25 -71v-866q0 -172 -106 -268t-279 -97q-172 0 -278 97q-106 96 -107 268v866q0 45 -25 71t-65 25 q-41 0 -66 -25q-25 -26 -24 -71v-796zM373 1649q0 -33 19 -56t54 -22q8 0 20 2q11 2 26 8l192 76l193 -76q14 -6 25 -8t20 -2q35 0 54 22q19 23 19 56q0 51 -47 71l-264 113l-264 -113q-47 -20 -47 -71z" />
<glyph unicode="&#xf4;" horiz-adv-x="1368" d="M119 578q0 -184 53 -299t136 -180t182 -88q99 -24 194 -23q94 0 194 23q99 24 182 88q83 65 136 180t53 299v796q0 45 -24 71q-25 26 -66 25q-41 0 -65 -25q-25 -26 -25 -71v-866q0 -172 -106 -268t-279 -97q-172 0 -278 97q-106 96 -107 268v866q0 45 -25 71t-65 25 q-41 0 -66 -25q-25 -26 -24 -71v-796zM457 1761q0 -18 14 -39q14 -20 57 -36l236 -97q27 -10 41 -14t29 -4q41 0 59 32t18 54q0 18 -14 39q-14 20 -57 37l-236 96q-27 10 -41 14t-28 4q-41 0 -60 -31q-18 -32 -18 -55z" />
<glyph unicode="&#xf5;" d="M119 84q0 -45 24.5 -70.5t65.5 -25.5t65.5 25.5t24.5 70.5v922q0 45 -24.5 70.5t-65.5 25.5t-65.5 -25.5t-24.5 -70.5v-922z" />
<glyph unicode="&#xf6;" d="M-102 1321q0 -33 19.5 -55.5t53.5 -22.5q8 0 19.5 2t25.5 8l193 76l192 -76q14 -6 25.5 -8t19.5 -2q35 0 54.5 22.5t19.5 55.5q0 51 -47 72l-264 112l-264 -112q-47 -20 -47 -72z" />
<glyph unicode="&#xf7;" d="M-96 1341q0 -33 22.5 -56t44.5 -23q18 0 31.5 6t28 14t31 14.5t36.5 6.5q31 0 56.5 -6.5t51 -14.5t54.5 -14t64 -6q86 0 138 40.5t52 88.5q0 33 -22.5 56t-45.5 23q-18 0 -31.5 -6t-27.5 -14t-29.5 -14t-38.5 -6q-31 0 -56 6t-51 14t-54.5 14t-63.5 6q-86 0 -138 -41 t-52 -88z" />
<glyph unicode="&#xf8;" d="M-86 1327q0 -43 24.5 -63.5t63.5 -20.5h414q39 0 63.5 20.5t24.5 63.5t-24.5 63.5t-63.5 20.5h-414q-39 0 -63.5 -20.5t-24.5 -63.5z" />
<glyph unicode="&#xf9;" d="M-68 1427q0 -45 28 -81.5t69 -62.5t89 -40t91 -14t91 14t89 40t68.5 62.5t27.5 81.5q0 31 -17 52.5t-46 21.5q-25 0 -44.5 -18.5t-43 -40t-53 -40t-72.5 -18.5t-73 18.5t-53.5 40t-43 40t-43.5 18.5q-29 0 -46.5 -21.5t-17.5 -52.5z" />
<glyph unicode="&#xfa;" d="M98 1348q0 -47 32 -79t79 -32t78.5 31.5t31.5 79.5q0 47 -31.5 78.5t-78.5 31.5t-79 -31.5t-32 -78.5z" />
<glyph unicode="&#xfb;" d="M16 1389q0 -39 15.5 -75t41 -61.5t61.5 -41t75 -15.5q41 0 75.5 15.5t60.5 41t41 61.5t15 75q0 41 -15 75.5t-41 60t-60.5 41t-75.5 15.5q-39 0 -75 -15.5t-61.5 -41t-41 -60t-15.5 -75.5zM115 1389q0 39 27.5 66.5t66.5 27.5t66.5 -28t27.5 -66q0 -39 -27.5 -67 t-66.5 -28t-66.5 28t-27.5 67z" />
<glyph unicode="&#xfc;" d="M123 -297q0 -33 42 -52.5t107 -19.5q98 0 163 41t65 135q0 18 -9.5 38t-28 36.5t-44 27.5t-60.5 11q-16 0 -25 -2l-18 -4l60 86h-109l-53 -76q-20 -31 -20 -51q0 -8 11 -23.5t50 -15.5q45 0 67.5 -4t22.5 -33q0 -31 -17.5 -43t-54.5 -12q-29 0 -57.5 8t-48.5 8 q-23 0 -33 -17t-10 -38z" />
<glyph unicode="&#xfd;" d="M-244 1329q0 -23 18.5 -54.5t59.5 -31.5q14 0 28.5 4t41.5 15l235 96q43 16 57.5 36.5t14.5 39.5q0 23 -18.5 54.5t-59.5 31.5q-14 0 -28.5 -4.5t-41.5 -14.5l-235 -96q-43 -16 -57.5 -36.5t-14.5 -39.5zM207 1329q0 -23 18.5 -54.5t59.5 -31.5q14 0 28.5 4t40.5 15 l236 96q43 16 57.5 36.5t14.5 39.5q0 23 -18.5 54.5t-59.5 31.5q-14 0 -28.5 -4.5t-41.5 -14.5l-235 -96q-43 -16 -57.5 -36.5t-14.5 -39.5z" />
<glyph unicode="&#xfe;" d="M123 -215q0 -74 61.5 -112t141.5 -38q29 0 59.5 3.5t56 12.5t42 24.5t16.5 39.5q0 16 -10.5 31.5t-38.5 15.5q-16 0 -39 -8t-58 -8q-45 0 -60 22.5t-15 47.5q0 31 17 65.5t58 73.5l54 49h-109l-63 -47q-43 -31 -78 -75t-35 -97z" />
<glyph unicode="&#xff;" d="M-102 1427q0 -51 47 -71l264 -113l264 113q47 20 47 71q0 33 -19.5 55.5t-54.5 22.5q-8 0 -19 -2t-26 -8l-192 -76l-193 76q-14 6 -25 8t-20 2q-35 0 -54 -22.5t-19 -55.5z" />
<glyph unicode="&#x152;" horiz-adv-x="1138" d="M72 545q0 -109 31 -209q32 -100 94 -178q61 -78 150 -124t204 -46q88 0 163 40t134 124h4v-76q0 -47 28 -68q28 -20 56 -20q27 0 55 20q29 20 29 68v938q0 47 -29 67t-55 21q-29 0 -56 -21q-28 -20 -28 -67v-58h-4q-63 70 -133 108t-164 38q-115 0 -204 -46t-150 -124 t-94 -178q-32 -100 -31 -209zM252 545q0 70 15 140q15 71 51 129t94 95q57 37 139 37q84 0 140 -37t92 -95t52 -129q15 -71 15 -140q0 -70 -15 -141t-52 -129q-36 -58 -92 -95t-140 -37q-82 0 -139 37t-94 95q-36 58 -51 129t-15 141zM377 1389q0 -39 15 -75t41 -62t62 -41 t74 -15q41 0 76 15t61 41t40 62q15 36 16 75q0 41 -16 75q-15 35 -40 61q-26 26 -61 41t-76 15q-39 0 -74 -15q-36 -15 -62 -41t-41 -61q-15 -34 -15 -75zM475 1389q0 39 28 66q28 28 66 28q39 0 67 -28t28 -66q0 -39 -28 -67t-67 -28t-66 28q-28 28 -28 67z" />
<glyph unicode="&#x153;" horiz-adv-x="1101" d="M119 422q0 -119 37 -202t97 -135t138 -75t160 -22q82 0 160 22q78 23 138 75t97 135t37 202v584q0 45 -25 70q-25 26 -65 26q-41 0 -66 -26t-24 -70v-578q0 -285 -252 -285t-252 285v578q0 45 -25 70q-25 26 -65 26q-41 0 -66 -26t-24 -70v-584zM324 1329q0 -23 18 -54 q18 -32 59 -32q14 0 29 4q14 4 41 15l236 96q43 16 57 37q14 20 14 39q0 23 -18 54q-18 32 -60 32q-14 0 -28 -4t-41 -15l-236 -96q-43 -16 -57 -37q-14 -20 -14 -39z" />
<glyph unicode="&#x178;" horiz-adv-x="1101" d="M119 422q0 -119 37 -202t97 -135t138 -75t160 -22q82 0 160 22q78 23 138 75t97 135t37 202v584q0 45 -25 70q-25 26 -65 26q-41 0 -66 -26t-24 -70v-578q0 -285 -252 -285t-252 285v578q0 45 -25 70q-25 26 -65 26q-41 0 -66 -26t-24 -70v-584zM250 1348q0 -47 32 -79 t78 -32q47 0 79 32t32 79t-32 78q-32 32 -79 32t-78 -32q-32 -31 -32 -78zM631 1348q0 -47 32 -79t78 -32q47 0 79 32t32 79t-32 78q-32 32 -79 32t-78 -32q-32 -31 -32 -78z" />
<glyph unicode="&#x2c6;" horiz-adv-x="1138" d="M72 545q0 -109 31 -209q32 -100 94 -178q61 -78 150 -124t204 -46q88 0 163 40t134 124h4v-76q0 -47 28 -68q28 -20 56 -20q27 0 55 20q29 20 29 68v938q0 47 -29 67t-55 21q-29 0 -56 -21q-28 -20 -28 -67v-58h-4q-63 70 -133 108t-164 38q-115 0 -204 -46t-150 -124 t-94 -178q-32 -100 -31 -209zM252 545q0 70 15 140q15 71 51 129t94 95q57 37 139 37q84 0 140 -37t92 -95t52 -129q15 -71 15 -140q0 -70 -15 -141t-52 -129q-36 -58 -92 -95t-140 -37q-82 0 -139 37t-94 95q-36 58 -51 129t-15 141zM342 1434q0 -18 14 -39q14 -20 58 -37 l235 -96q27 -10 41 -15q14 -4 29 -4q41 0 59 32t19 54q0 18 -15 39q-14 20 -57 37l-236 96q-27 10 -40 15q-14 4 -29 4q-41 0 -60 -32q-18 -32 -18 -54z" />
<glyph unicode="&#x2dc;" horiz-adv-x="1101" d="M72 545q0 -109 31 -209q32 -100 94 -178q61 -78 150 -124t204 -46t204 46t150 124t93 178t32 209t-32 209t-93 178t-150 124t-204 46t-204 -46t-150 -124t-94 -178q-31 -100 -31 -209zM252 545q0 70 15 140q15 71 51 129t94 95q57 37 139 37q84 0 140 -37t92 -95t52 -129 q15 -71 15 -140q0 -70 -15 -141t-52 -129q-36 -58 -92 -95t-140 -37q-82 0 -139 37t-94 95q-36 58 -51 129t-15 141zM324 1434q0 -18 14 -39q14 -20 57 -37l236 -96q27 -10 41 -15q14 -4 28 -4q41 0 60 32q18 32 18 54q0 18 -14 39q-14 20 -57 37l-236 96q-27 10 -41 15 q-14 4 -29 4q-41 0 -59 -32t-18 -54z" />
<glyph unicode="&#x2000;" horiz-adv-x="944" />
<glyph unicode="&#x2001;" horiz-adv-x="1888" />
<glyph unicode="&#x2002;" horiz-adv-x="944" />
<glyph unicode="&#x2003;" horiz-adv-x="1888" />
<glyph unicode="&#x2004;" horiz-adv-x="629" />
<glyph unicode="&#x2005;" horiz-adv-x="472" />
<glyph unicode="&#x2006;" horiz-adv-x="314" />
<glyph unicode="&#x2007;" horiz-adv-x="314" />
<glyph unicode="&#x2008;" horiz-adv-x="236" />
<glyph unicode="&#x2009;" horiz-adv-x="377" />
<glyph unicode="&#x200a;" horiz-adv-x="104" />
<glyph unicode="&#x2010;" horiz-adv-x="720" d="M72 549q0 -33 22.5 -55.5t55.5 -22.5h421q33 0 55.5 22.5t22.5 55.5t-22.5 55.5t-55.5 22.5h-421q-33 0 -55.5 -22.5t-22.5 -55.5z" />
<glyph unicode="&#x2011;" horiz-adv-x="720" d="M72 549q0 -33 22.5 -55.5t55.5 -22.5h421q33 0 55.5 22.5t22.5 55.5t-22.5 55.5t-55.5 22.5h-421q-33 0 -55.5 -22.5t-22.5 -55.5z" />
<glyph unicode="&#x2012;" horiz-adv-x="720" d="M72 549q0 -33 22.5 -55.5t55.5 -22.5h421q33 0 55.5 22.5t22.5 55.5t-22.5 55.5t-55.5 22.5h-421q-33 0 -55.5 -22.5t-22.5 -55.5z" />
<glyph unicode="&#x2013;" horiz-adv-x="1101" d="M119 84q0 -45 24 -71q25 -26 66 -25q41 0 65 25q25 26 25 71v594q0 72 23 123t58 83q36 32 81 47t90 15t90 -15t81 -47t58 -83q23 -51 23 -123v-594q0 -45 24 -71q25 -26 66 -25q41 0 65 25q25 26 25 71v604q0 115 -36 194t-91 128t-122 70q-67 22 -130 22 q-82 0 -162 -33t-139 -111l-4 5v43q0 45 -25 70q-25 26 -65 26q-41 0 -66 -26t-24 -70v-922zM246 1341q0 -33 22 -56q23 -24 45 -23q18 0 32 6q13 6 28 14q14 8 30 14t37 7q31 0 57 -7q26 -6 51 -14q26 -8 54 -14q29 -6 64 -6q86 0 138 41t52 88q0 33 -22 56q-23 24 -46 23 q-18 0 -31 -6t-28 -14q-14 -8 -30 -14q-15 -6 -37 -6q-31 0 -57 6t-51 14q-26 8 -54 14q-29 6 -64 6q-86 0 -138 -40q-52 -42 -52 -89z" />
<glyph unicode="&#x2014;" horiz-adv-x="1101" d="M72 545q0 -109 31 -209q32 -100 94 -178q61 -78 150 -124t204 -46t204 46t150 124t93 178t32 209t-32 209t-93 178t-150 124t-204 46t-204 -46t-150 -124t-94 -178q-31 -100 -31 -209zM252 545q0 70 15 140q15 71 51 129t94 95q57 37 139 37q84 0 140 -37t92 -95t52 -129 q15 -71 15 -140q0 -70 -15 -141t-52 -129q-36 -58 -92 -95t-140 -37q-82 0 -139 37t-94 95q-36 58 -51 129t-15 141zM324 1329q0 -23 18 -54q18 -32 59 -32q14 0 29 4q14 4 41 15l236 96q43 16 57 37q14 20 14 39q0 23 -18 54q-18 32 -60 32q-14 0 -28 -4t-41 -15l-236 -96 q-43 -16 -57 -37q-14 -20 -14 -39z" />
<glyph unicode="&#x2018;" horiz-adv-x="1064" d="M53 545q0 -109 29 -209t90 -178t156 -124q94 -46 225 -46q80 0 158 22q78 23 140 57t100 72q38 39 38 72q0 39 -20 59t-45 21q-25 0 -53 -23t-67 -50q-40 -28 -99 -51q-59 -24 -150 -24q-76 0 -135 26t-102 71q-42 45 -63 105q-22 60 -22 130h678q59 0 80 25q20 25 21 71 q0 98 -32 194q-32 95 -91 170t-148 121q-88 46 -198 46q-115 0 -206 -45t-154 -122q-62 -77 -96 -178t-34 -212zM231 1348q0 -47 32 -79t79 -32t79 32t32 79t-32 78q-32 32 -79 32t-79 -32q-32 -31 -32 -78zM233 610q2 61 20 123q17 61 54 110q37 48 94 78t142 25 q74 0 129 -31t90 -78q35 -48 52 -108q17 -59 17 -119h-598zM612 1348q0 -47 32 -79t79 -32t79 32t32 79t-32 78q-32 32 -79 32t-79 -32q-32 -31 -32 -78z" />
<glyph unicode="&#x2019;" d="M-18 1329q0 -23 18 -54q18 -32 59 -32q14 0 29 4q14 4 41 15l236 96q43 16 57 37q14 20 14 39q0 23 -18 54q-18 32 -60 32q-14 0 -28 -4t-41 -15l-236 -96q-43 -16 -57 -37q-14 -20 -14 -39zM119 84q0 -45 24 -71q25 -26 66 -25q41 0 65 25q25 26 25 71v922q0 45 -25 70 q-25 26 -65 26q-41 0 -66 -26t-24 -70v-922z" />
<glyph unicode="&#x201a;" horiz-adv-x="1214" d="M63 729q0 -133 36 -260t106.5 -228.5t177 -168t246.5 -80.5l-47 -68q-20 -31 -21 -51q0 -8 11.5 -23.5t50.5 -15.5q45 0 67.5 -4t22.5 -33q0 -31 -17.5 -43t-54.5 -12q-29 0 -57.5 8t-48.5 8q-23 0 -33 -17t-10 -38q0 -33 41.5 -52.5t107.5 -19.5q98 0 162.5 41t64.5 135 q0 18 -9 38t-27.5 36.5t-44 27.5t-60.5 11q-16 0 -25.5 -2t-17.5 -4l51 76q90 2 169 21.5t137.5 48t91 63.5t32.5 67q0 39 -19.5 61.5t-51.5 22.5q-29 0 -63 -20.5t-80 -45t-106.5 -45t-142.5 -20.5q-117 0 -200.5 52.5t-138 136.5t-81 188.5t-26.5 208.5t25.5 208.5 t81 188.5t142.5 136.5t208 52.5q84 0 137 -22.5t90 -49t63.5 -49.5t57.5 -23q35 0 54.5 26t19.5 60q0 29 -30 65t-85 69.5t-133 56t-174 22.5q-162 0 -284 -62t-203 -165.5t-122 -238t-41 -275.5z" />
<glyph unicode="&#x201c;" d="M-18 1434q0 -18 14 -39q14 -20 57 -37l236 -96q27 -10 41 -15q14 -4 28 -4q41 0 60 32q18 32 18 54q0 18 -14 39q-14 20 -57 37l-236 96q-27 10 -41 15q-14 4 -29 4q-41 0 -59 -32t-18 -54zM119 84q0 -45 24 -71q25 -26 66 -25q41 0 65 25q25 26 25 71v922q0 45 -25 70 q-25 26 -65 26q-41 0 -66 -26t-24 -70v-922z" />
<glyph unicode="&#x201d;" d="M-102 1321q0 -33 19 -55q19 -23 54 -23q8 0 20 2q11 2 25 8l193 76l192 -76q14 -6 26 -8q11 -2 19 -2q35 0 55 23q19 23 19 55q0 51 -47 72l-264 112l-264 -112q-47 -20 -47 -72zM119 84q0 -45 24 -71q25 -26 66 -25q41 0 65 25q25 26 25 71v922q0 45 -25 70 q-25 26 -65 26q-41 0 -66 -26t-24 -70v-922z" />
<glyph unicode="&#x201e;" horiz-adv-x="1368" d="M119 84q0 -45 24 -71q25 -26 66 -25q41 0 65 25q25 26 25 71v1057h4l737 -1059q37 -53 62 -74q25 -20 65 -20q82 0 82 106v1280q0 45 -24 71q-25 26 -66 25q-41 0 -65 -25q-25 -26 -25 -71v-1057h-4l-737 1059q-37 53 -62 74q-25 20 -65 20q-82 0 -82 -106v-1280z M379 1669q0 -33 22 -56q23 -24 45 -24q18 0 32 6q13 6 28 15q14 8 31 14q16 6 36 6q31 0 57 -6t51 -14q26 -8 54 -15q29 -6 64 -6q86 0 138 41t52 88q0 33 -22 57q-23 24 -45 23q-18 0 -32 -6q-13 -6 -28 -14q-14 -8 -29 -15q-15 -6 -38 -6q-31 0 -57 6t-51 15q-26 8 -54 14 q-29 6 -64 6q-86 0 -138 -41t-52 -88z" />
<glyph unicode="&#x2022;" d="M-92 1348q0 -47 32 -79t78 -32q47 0 79 32t32 79t-32 78q-32 32 -79 32t-78 -32q-32 -31 -32 -78zM119 84q0 -45 24 -71q25 -26 66 -25q41 0 65 25q25 26 25 71v922q0 45 -25 70q-25 26 -65 26q-41 0 -66 -26t-24 -70v-922zM289 1348q0 -47 32 -79t78 -32q47 0 79 32 t32 79t-32 78q-32 32 -79 32t-78 -32q-32 -31 -32 -78z" />
<glyph unicode="&#x2026;" horiz-adv-x="1404" d="M63 729q0 -141 41 -275t122 -238q81 -103 201 -166q120 -62 275 -62q156 0 276 62t201 166q81 103 121 238q41 134 41 275t-41 276q-41 134 -121 237q-81 103 -201 166q-120 62 -276 62t-275 -62q-120 -62 -201 -166q-81 -103 -122 -237q-41 -135 -41 -276zM256 729 q0 104 24 209q24 104 76 188q53 84 139 137q85 52 207 52q123 0 208 -52t139 -137q53 -84 76 -188q24 -104 24 -209q0 -104 -24 -209q-24 -104 -76 -188q-53 -84 -139 -136q-85 -52 -208 -53q-123 0 -207 53q-85 52 -139 136q-53 84 -76 188q-24 105 -24 209zM401 1675 q0 -47 32 -79t79 -31q47 0 79 31q32 32 32 79t-32 79t-79 32t-79 -32t-32 -79zM782 1675q0 -47 32 -79t79 -31q47 0 79 31q32 32 32 79t-32 79t-79 32t-79 -32t-32 -79z" />
<glyph unicode="&#x202f;" horiz-adv-x="377" />
<glyph unicode="&#x2039;" horiz-adv-x="1138" d="M72 545q0 -109 31 -209q32 -100 94 -178q61 -78 150 -124t204 -46q88 0 163 40t134 124h4v-76q0 -47 28 -68q28 -20 56 -20q27 0 55 20q29 20 29 68v938q0 47 -29 67t-55 21q-29 0 -56 -21q-28 -20 -28 -67v-58h-4q-63 70 -133 108t-164 38q-115 0 -204 -46t-150 -124 t-94 -178q-32 -100 -31 -209zM252 545q0 70 15 140q15 71 51 129t94 95q57 37 139 37q84 0 140 -37t92 -95t52 -129q15 -71 15 -140q0 -70 -15 -141t-52 -129q-36 -58 -92 -95t-140 -37q-82 0 -139 37t-94 95q-36 58 -51 129t-15 141zM264 1341q0 -33 23 -56q23 -24 45 -23 q18 0 32 6q13 6 27 14t31 14q16 6 37 7q31 0 56 -7q26 -6 51 -14q26 -8 55 -14t63 -6q86 0 138 41t52 88q0 33 -22 56q-23 24 -45 23q-18 0 -32 -6q-13 -6 -27 -14t-30 -14q-15 -6 -38 -6q-31 0 -56 6q-26 6 -52 14t-54 14q-29 6 -63 6q-86 0 -139 -40q-52 -42 -52 -89z" />
<glyph unicode="&#x203a;" horiz-adv-x="1101" d="M72 545q0 -109 31 -209q32 -100 94 -178q61 -78 150 -124t204 -46t204 46t150 124t93 178t32 209t-32 209t-93 178t-150 124t-204 46t-204 -46t-150 -124t-94 -178q-31 -100 -31 -209zM246 1341q0 -33 22 -56q23 -24 45 -23q18 0 32 6q13 6 28 14q14 8 30 14t37 7 q31 0 57 -7q26 -6 51 -14q26 -8 54 -14q29 -6 64 -6q86 0 138 41t52 88q0 33 -22 56q-23 24 -46 23q-18 0 -31 -6t-28 -14q-14 -8 -30 -14q-15 -6 -37 -6q-31 0 -57 6t-51 14q-26 8 -54 14q-29 6 -64 6q-86 0 -138 -40q-52 -42 -52 -89zM252 545q0 70 15 140q15 71 51 129 t94 95q57 37 139 37q84 0 140 -37t92 -95t52 -129q15 -71 15 -140q0 -70 -15 -141t-52 -129q-36 -58 -92 -95t-140 -37q-82 0 -139 37t-94 95q-36 58 -51 129t-15 141z" />
<glyph unicode="&#x205f;" horiz-adv-x="472" />
<glyph unicode="&#x2122;" horiz-adv-x="1101" d="M72 545q0 -109 31 -209q32 -100 94 -178q61 -78 150 -124t204 -46t204 46t150 124t93 178t32 209t-32 209t-93 178t-150 124t-204 46t-204 -46t-150 -124t-94 -178q-31 -100 -31 -209zM240 1321q0 -33 19 -55q19 -23 54 -23q8 0 20 2q11 2 25 8l193 76l192 -76 q14 -6 26 -8q11 -2 19 -2q35 0 55 23q19 23 19 55q0 51 -47 72l-264 112l-264 -112q-47 -20 -47 -72zM252 545q0 70 15 140q15 71 51 129t94 95q57 37 139 37q84 0 140 -37t92 -95t52 -129q15 -71 15 -140q0 -70 -15 -141t-52 -129q-36 -58 -92 -95t-140 -37q-82 0 -139 37 t-94 95q-36 58 -51 129t-15 141z" />
<glyph unicode="&#xe000;" horiz-adv-x="1105" d="M0 0v1106h1106v-1106h-1106z" />
</font>
</defs></svg> 